uart_rx_tb.vcd
$date
	Fri May 23 09:12:17 2025
$end
$version
	ModelSim Version 2020.1
$end
$timescale
	1ps
$end

$scope module uart_rx_tb $end
$var parameter 32 ! CLK_RATE $end
$var parameter 32 " BAUD_RATE $end
$var parameter 32 # CLOCKS_PER_BIT $end
$var parameter 32 $ BIT_PERIOD $end
$var reg 1 % clk $end
$var reg 1 & rstn $end
$var reg 1 ' rx $end
$var wire 1 ( data_out [7] $end
$var wire 1 ) data_out [6] $end
$var wire 1 * data_out [5] $end
$var wire 1 + data_out [4] $end
$var wire 1 , data_out [3] $end
$var wire 1 - data_out [2] $end
$var wire 1 . data_out [1] $end
$var wire 1 / data_out [0] $end
$var wire 1 0 data_valid $end
$var wire 1 1 is_valid $end
$var wire 1 2 state_bits [1] $end
$var wire 1 3 state_bits [0] $end

$scope task send_uart_byte $end
$var reg 8 4 data [7:0] $end
$var integer 32 5 i $end
$upscope $end

$scope module dut $end
$var parameter 32 6 CLK_RATE $end
$var parameter 32 7 BAUD_RATE $end
$var parameter 32 8 BITS_PER_WORD $end
$var parameter 32 9 CLOCKS_PER_BIT $end
$var parameter 2 : STATE_IDLE $end
$var parameter 2 ; STATE_START $end
$var parameter 2 < STATE_DATA $end
$var parameter 2 = STATE_STOP $end
$var wire 1 > clk $end
$var wire 1 ? rstn $end
$var wire 1 @ rx $end
$var reg 8 A data_out [7:0] $end
$var reg 1 B data_valid $end
$var reg 1 C is_valid $end
$var reg 2 D state_bits [1:0] $end
$var reg 2 E state [1:0] $end
$var reg 9 F clk_count [8:0] $end
$var reg 3 G bit_index [2:0] $end
$var reg 8 H rx_shift [7:0] $end
$upscope $end
$upscope $end
$enddefinitions $end
#0
$dumpvars
0%
0&
1'
b0 A
0B
0C
b0 D
b0 E
b0 F
b0 G
b0 H
bx 4
b10111110101111000010000000 !
b11100001000000000 "
b110110010 #
b10000111101000 $
b10111110101111000010000000 6
b11100001000000000 7
b1000 8
b110110010 9
b0 :
b1 ;
b10 <
b11 =
bx 5
0/
0.
0-
0,
0+
0*
0)
0(
00
01
03
02
1@
0?
0>
$end
#10000
1%
1>
#20000
0%
0>
#30000
1%
1>
#40000
0%
0>
#50000
1%
1>
#60000
0%
0>
#70000
1%
1>
#80000
0%
0>
#90000
1%
1>
#100000
1&
0%
1?
0>
#110000
1%
1>
#120000
0%
0>
#130000
1%
1>
#140000
0%
0>
#150000
1%
1>
#160000
0%
0>
#170000
1%
1>
#180000
0%
0>
#190000
1%
1>
#200000
b1010101 4
0'
0%
0@
0>
#210000
1%
1>
b1 E
b11011001 F
#220000
0%
0>
#230000
1%
1>
b1 D
b11011010 F
13
#240000
0%
0>
#250000
1%
1>
b11011011 F
#260000
0%
0>
#270000
1%
1>
b11011100 F
#280000
0%
0>
#290000
1%
1>
b11011101 F
#300000
0%
0>
#310000
1%
1>
b11011110 F
#320000
0%
0>
#330000
1%
1>
b11011111 F
#340000
0%
0>
#350000
1%
1>
b11100000 F
#360000
0%
0>
#370000
1%
1>
b11100001 F
#380000
0%
0>
#390000
1%
1>
b11100010 F
#400000
0%
0>
#410000
1%
1>
b11100011 F
#420000
0%
0>
#430000
1%
1>
b11100100 F
#440000
0%
0>
#450000
1%
1>
b11100101 F
#460000
0%
0>
#470000
1%
1>
b11100110 F
#480000
0%
0>
#490000
1%
1>
b11100111 F
#500000
0%
0>
#510000
1%
1>
b11101000 F
#520000
0%
0>
#530000
1%
1>
b11101001 F
#540000
0%
0>
#550000
1%
1>
b11101010 F
#560000
0%
0>
#570000
1%
1>
b11101011 F
#580000
0%
0>
#590000
1%
1>
b11101100 F
#600000
0%
0>
#610000
1%
1>
b11101101 F
#620000
0%
0>
#630000
1%
1>
b11101110 F
#640000
0%
0>
#650000
1%
1>
b11101111 F
#660000
0%
0>
#670000
1%
1>
b11110000 F
#680000
0%
0>
#690000
1%
1>
b11110001 F
#700000
0%
0>
#710000
1%
1>
b11110010 F
#720000
0%
0>
#730000
1%
1>
b11110011 F
#740000
0%
0>
#750000
1%
1>
b11110100 F
#760000
0%
0>
#770000
1%
1>
b11110101 F
#780000
0%
0>
#790000
1%
1>
b11110110 F
#800000
0%
0>
#810000
1%
1>
b11110111 F
#820000
0%
0>
#830000
1%
1>
b11111000 F
#840000
0%
0>
#850000
1%
1>
b11111001 F
#860000
0%
0>
#870000
1%
1>
b11111010 F
#880000
0%
0>
#890000
1%
1>
b11111011 F
#900000
0%
0>
#910000
1%
1>
b11111100 F
#920000
0%
0>
#930000
1%
1>
b11111101 F
#940000
0%
0>
#950000
1%
1>
b11111110 F
#960000
0%
0>
#970000
1%
1>
b11111111 F
#980000
0%
0>
#990000
1%
1>
b100000000 F
#1000000
0%
0>
#1010000
1%
1>
b100000001 F
#1020000
0%
0>
#1030000
1%
1>
b100000010 F
#1040000
0%
0>
#1050000
1%
1>
b100000011 F
#1060000
0%
0>
#1070000
1%
1>
b100000100 F
#1080000
0%
0>
#1090000
1%
1>
b100000101 F
#1100000
0%
0>
#1110000
1%
1>
b100000110 F
#1120000
0%
0>
#1130000
1%
1>
b100000111 F
#1140000
0%
0>
#1150000
1%
1>
b100001000 F
#1160000
0%
0>
#1170000
1%
1>
b100001001 F
#1180000
0%
0>
#1190000
1%
1>
b100001010 F
#1200000
0%
0>
#1210000
1%
1>
b100001011 F
#1220000
0%
0>
#1230000
1%
1>
b100001100 F
#1240000
0%
0>
#1250000
1%
1>
b100001101 F
#1260000
0%
0>
#1270000
1%
1>
b100001110 F
#1280000
0%
0>
#1290000
1%
1>
b100001111 F
#1300000
0%
0>
#1310000
1%
1>
b100010000 F
#1320000
0%
0>
#1330000
1%
1>
b100010001 F
#1340000
0%
0>
#1350000
1%
1>
b100010010 F
#1360000
0%
0>
#1370000
1%
1>
b100010011 F
#1380000
0%
0>
#1390000
1%
1>
b100010100 F
#1400000
0%
0>
#1410000
1%
1>
b100010101 F
#1420000
0%
0>
#1430000
1%
1>
b100010110 F
#1440000
0%
0>
#1450000
1%
1>
b100010111 F
#1460000
0%
0>
#1470000
1%
1>
b100011000 F
#1480000
0%
0>
#1490000
1%
1>
b100011001 F
#1500000
0%
0>
#1510000
1%
1>
b100011010 F
#1520000
0%
0>
#1530000
1%
1>
b100011011 F
#1540000
0%
0>
#1550000
1%
1>
b100011100 F
#1560000
0%
0>
#1570000
1%
1>
b100011101 F
#1580000
0%
0>
#1590000
1%
1>
b100011110 F
#1600000
0%
0>
#1610000
1%
1>
b100011111 F
#1620000
0%
0>
#1630000
1%
1>
b100100000 F
#1640000
0%
0>
#1650000
1%
1>
b100100001 F
#1660000
0%
0>
#1670000
1%
1>
b100100010 F
#1680000
0%
0>
#1690000
1%
1>
b100100011 F
#1700000
0%
0>
#1710000
1%
1>
b100100100 F
#1720000
0%
0>
#1730000
1%
1>
b100100101 F
#1740000
0%
0>
#1750000
1%
1>
b100100110 F
#1760000
0%
0>
#1770000
1%
1>
b100100111 F
#1780000
0%
0>
#1790000
1%
1>
b100101000 F
#1800000
0%
0>
#1810000
1%
1>
b100101001 F
#1820000
0%
0>
#1830000
1%
1>
b100101010 F
#1840000
0%
0>
#1850000
1%
1>
b100101011 F
#1860000
0%
0>
#1870000
1%
1>
b100101100 F
#1880000
0%
0>
#1890000
1%
1>
b100101101 F
#1900000
0%
0>
#1910000
1%
1>
b100101110 F
#1920000
0%
0>
#1930000
1%
1>
b100101111 F
#1940000
0%
0>
#1950000
1%
1>
b100110000 F
#1960000
0%
0>
#1970000
1%
1>
b100110001 F
#1980000
0%
0>
#1990000
1%
1>
b100110010 F
#2000000
0%
0>
#2010000
1%
1>
b100110011 F
#2020000
0%
0>
#2030000
1%
1>
b100110100 F
#2040000
0%
0>
#2050000
1%
1>
b100110101 F
#2060000
0%
0>
#2070000
1%
1>
b100110110 F
#2080000
0%
0>
#2090000
1%
1>
b100110111 F
#2100000
0%
0>
#2110000
1%
1>
b100111000 F
#2120000
0%
0>
#2130000
1%
1>
b100111001 F
#2140000
0%
0>
#2150000
1%
1>
b100111010 F
#2160000
0%
0>
#2170000
1%
1>
b100111011 F
#2180000
0%
0>
#2190000
1%
1>
b100111100 F
#2200000
0%
0>
#2210000
1%
1>
b100111101 F
#2220000
0%
0>
#2230000
1%
1>
b100111110 F
#2240000
0%
0>
#2250000
1%
1>
b100111111 F
#2260000
0%
0>
#2270000
1%
1>
b101000000 F
#2280000
0%
0>
#2290000
1%
1>
b101000001 F
#2300000
0%
0>
#2310000
1%
1>
b101000010 F
#2320000
0%
0>
#2330000
1%
1>
b101000011 F
#2340000
0%
0>
#2350000
1%
1>
b101000100 F
#2360000
0%
0>
#2370000
1%
1>
b101000101 F
#2380000
0%
0>
#2390000
1%
1>
b101000110 F
#2400000
0%
0>
#2410000
1%
1>
b101000111 F
#2420000
0%
0>
#2430000
1%
1>
b101001000 F
#2440000
0%
0>
#2450000
1%
1>
b101001001 F
#2460000
0%
0>
#2470000
1%
1>
b101001010 F
#2480000
0%
0>
#2490000
1%
1>
b101001011 F
#2500000
0%
0>
#2510000
1%
1>
b101001100 F
#2520000
0%
0>
#2530000
1%
1>
b101001101 F
#2540000
0%
0>
#2550000
1%
1>
b101001110 F
#2560000
0%
0>
#2570000
1%
1>
b101001111 F
#2580000
0%
0>
#2590000
1%
1>
b101010000 F
#2600000
0%
0>
#2610000
1%
1>
b101010001 F
#2620000
0%
0>
#2630000
1%
1>
b101010010 F
#2640000
0%
0>
#2650000
1%
1>
b101010011 F
#2660000
0%
0>
#2670000
1%
1>
b101010100 F
#2680000
0%
0>
#2690000
1%
1>
b101010101 F
#2700000
0%
0>
#2710000
1%
1>
b101010110 F
#2720000
0%
0>
#2730000
1%
1>
b101010111 F
#2740000
0%
0>
#2750000
1%
1>
b101011000 F
#2760000
0%
0>
#2770000
1%
1>
b101011001 F
#2780000
0%
0>
#2790000
1%
1>
b101011010 F
#2800000
0%
0>
#2810000
1%
1>
b101011011 F
#2820000
0%
0>
#2830000
1%
1>
b101011100 F
#2840000
0%
0>
#2850000
1%
1>
b101011101 F
#2860000
0%
0>
#2870000
1%
1>
b101011110 F
#2880000
0%
0>
#2890000
1%
1>
b101011111 F
#2900000
0%
0>
#2910000
1%
1>
b101100000 F
#2920000
0%
0>
#2930000
1%
1>
b101100001 F
#2940000
0%
0>
#2950000
1%
1>
b101100010 F
#2960000
0%
0>
#2970000
1%
1>
b101100011 F
#2980000
0%
0>
#2990000
1%
1>
b101100100 F
#3000000
0%
0>
#3010000
1%
1>
b101100101 F
#3020000
0%
0>
#3030000
1%
1>
b101100110 F
#3040000
0%
0>
#3050000
1%
1>
b101100111 F
#3060000
0%
0>
#3070000
1%
1>
b101101000 F
#3080000
0%
0>
#3090000
1%
1>
b101101001 F
#3100000
0%
0>
#3110000
1%
1>
b101101010 F
#3120000
0%
0>
#3130000
1%
1>
b101101011 F
#3140000
0%
0>
#3150000
1%
1>
b101101100 F
#3160000
0%
0>
#3170000
1%
1>
b101101101 F
#3180000
0%
0>
#3190000
1%
1>
b101101110 F
#3200000
0%
0>
#3210000
1%
1>
b101101111 F
#3220000
0%
0>
#3230000
1%
1>
b101110000 F
#3240000
0%
0>
#3250000
1%
1>
b101110001 F
#3260000
0%
0>
#3270000
1%
1>
b101110010 F
#3280000
0%
0>
#3290000
1%
1>
b101110011 F
#3300000
0%
0>
#3310000
1%
1>
b101110100 F
#3320000
0%
0>
#3330000
1%
1>
b101110101 F
#3340000
0%
0>
#3350000
1%
1>
b101110110 F
#3360000
0%
0>
#3370000
1%
1>
b101110111 F
#3380000
0%
0>
#3390000
1%
1>
b101111000 F
#3400000
0%
0>
#3410000
1%
1>
b101111001 F
#3420000
0%
0>
#3430000
1%
1>
b101111010 F
#3440000
0%
0>
#3450000
1%
1>
b101111011 F
#3460000
0%
0>
#3470000
1%
1>
b101111100 F
#3480000
0%
0>
#3490000
1%
1>
b101111101 F
#3500000
0%
0>
#3510000
1%
1>
b101111110 F
#3520000
0%
0>
#3530000
1%
1>
b101111111 F
#3540000
0%
0>
#3550000
1%
1>
b110000000 F
#3560000
0%
0>
#3570000
1%
1>
b110000001 F
#3580000
0%
0>
#3590000
1%
1>
b110000010 F
#3600000
0%
0>
#3610000
1%
1>
b110000011 F
#3620000
0%
0>
#3630000
1%
1>
b110000100 F
#3640000
0%
0>
#3650000
1%
1>
b110000101 F
#3660000
0%
0>
#3670000
1%
1>
b110000110 F
#3680000
0%
0>
#3690000
1%
1>
b110000111 F
#3700000
0%
0>
#3710000
1%
1>
b110001000 F
#3720000
0%
0>
#3730000
1%
1>
b110001001 F
#3740000
0%
0>
#3750000
1%
1>
b110001010 F
#3760000
0%
0>
#3770000
1%
1>
b110001011 F
#3780000
0%
0>
#3790000
1%
1>
b110001100 F
#3800000
0%
0>
#3810000
1%
1>
b110001101 F
#3820000
0%
0>
#3830000
1%
1>
b110001110 F
#3840000
0%
0>
#3850000
1%
1>
b110001111 F
#3860000
0%
0>
#3870000
1%
1>
b110010000 F
#3880000
0%
0>
#3890000
1%
1>
b110010001 F
#3900000
0%
0>
#3910000
1%
1>
b110010010 F
#3920000
0%
0>
#3930000
1%
1>
b110010011 F
#3940000
0%
0>
#3950000
1%
1>
b110010100 F
#3960000
0%
0>
#3970000
1%
1>
b110010101 F
#3980000
0%
0>
#3990000
1%
1>
b110010110 F
#4000000
0%
0>
#4010000
1%
1>
b110010111 F
#4020000
0%
0>
#4030000
1%
1>
b110011000 F
#4040000
0%
0>
#4050000
1%
1>
b110011001 F
#4060000
0%
0>
#4070000
1%
1>
b110011010 F
#4080000
0%
0>
#4090000
1%
1>
b110011011 F
#4100000
0%
0>
#4110000
1%
1>
b110011100 F
#4120000
0%
0>
#4130000
1%
1>
b110011101 F
#4140000
0%
0>
#4150000
1%
1>
b110011110 F
#4160000
0%
0>
#4170000
1%
1>
b110011111 F
#4180000
0%
0>
#4190000
1%
1>
b110100000 F
#4200000
0%
0>
#4210000
1%
1>
b110100001 F
#4220000
0%
0>
#4230000
1%
1>
b110100010 F
#4240000
0%
0>
#4250000
1%
1>
b110100011 F
#4260000
0%
0>
#4270000
1%
1>
b110100100 F
#4280000
0%
0>
#4290000
1%
1>
b110100101 F
#4300000
0%
0>
#4310000
1%
1>
b110100110 F
#4320000
0%
0>
#4330000
1%
1>
b110100111 F
#4340000
0%
0>
#4350000
1%
1>
b110101000 F
#4360000
0%
0>
#4370000
1%
1>
b110101001 F
#4380000
0%
0>
#4390000
1%
1>
b110101010 F
#4400000
0%
0>
#4410000
1%
1>
b110101011 F
#4420000
0%
0>
#4430000
1%
1>
b110101100 F
#4440000
0%
0>
#4450000
1%
1>
b110101101 F
#4460000
0%
0>
#4470000
1%
1>
b110101110 F
#4480000
0%
0>
#4490000
1%
1>
b110101111 F
#4500000
0%
0>
#4510000
1%
1>
b110110000 F
#4520000
0%
0>
#4530000
1%
1>
b110110001 F
#4540000
0%
0>
#4550000
1%
1>
b0 F
b10 E
#4560000
0%
0>
#4570000
1%
1>
1C
b10 D
b1 F
11
03
12
#4580000
0%
0>
#4590000
1%
1>
b10 F
#4600000
0%
0>
#4610000
1%
1>
b11 F
#4620000
0%
0>
#4630000
1%
1>
b100 F
#4640000
0%
0>
#4650000
1%
1>
b101 F
#4660000
0%
0>
#4670000
1%
1>
b110 F
#4680000
0%
0>
#4690000
1%
1>
b111 F
#4700000
0%
0>
#4710000
1%
1>
b1000 F
#4720000
0%
0>
#4730000
1%
1>
b1001 F
#4740000
0%
0>
#4750000
1%
1>
b1010 F
#4760000
0%
0>
#4770000
1%
1>
b1011 F
#4780000
0%
0>
#4790000
1%
1>
b1100 F
#4800000
0%
0>
#4810000
1%
1>
b1101 F
#4820000
0%
0>
#4830000
1%
1>
b1110 F
#4840000
0%
0>
#4850000
1%
1>
b1111 F
#4860000
0%
0>
#4870000
1%
1>
b10000 F
#4880000
0%
0>
#4890000
1%
1>
b10001 F
#4900000
0%
0>
#4910000
1%
1>
b10010 F
#4920000
0%
0>
#4930000
1%
1>
b10011 F
#4940000
0%
0>
#4950000
1%
1>
b10100 F
#4960000
0%
0>
#4970000
1%
1>
b10101 F
#4980000
0%
0>
#4990000
1%
1>
b10110 F
#5000000
0%
0>
#5010000
1%
1>
b10111 F
#5020000
0%
0>
#5030000
1%
1>
b11000 F
#5040000
0%
0>
#5050000
1%
1>
b11001 F
#5060000
0%
0>
#5070000
1%
1>
b11010 F
#5080000
0%
0>
#5090000
1%
1>
b11011 F
#5100000
0%
0>
#5110000
1%
1>
b11100 F
#5120000
0%
0>
#5130000
1%
1>
b11101 F
#5140000
0%
0>
#5150000
1%
1>
b11110 F
#5160000
0%
0>
#5170000
1%
1>
b11111 F
#5180000
0%
0>
#5190000
1%
1>
b100000 F
#5200000
0%
0>
#5210000
1%
1>
b100001 F
#5220000
0%
0>
#5230000
1%
1>
b100010 F
#5240000
0%
0>
#5250000
1%
1>
b100011 F
#5260000
0%
0>
#5270000
1%
1>
b100100 F
#5280000
0%
0>
#5290000
1%
1>
b100101 F
#5300000
0%
0>
#5310000
1%
1>
b100110 F
#5320000
0%
0>
#5330000
1%
1>
b100111 F
#5340000
0%
0>
#5350000
1%
1>
b101000 F
#5360000
0%
0>
#5370000
1%
1>
b101001 F
#5380000
0%
0>
#5390000
1%
1>
b101010 F
#5400000
0%
0>
#5410000
1%
1>
b101011 F
#5420000
0%
0>
#5430000
1%
1>
b101100 F
#5440000
0%
0>
#5450000
1%
1>
b101101 F
#5460000
0%
0>
#5470000
1%
1>
b101110 F
#5480000
0%
0>
#5490000
1%
1>
b101111 F
#5500000
0%
0>
#5510000
1%
1>
b110000 F
#5520000
0%
0>
#5530000
1%
1>
b110001 F
#5540000
0%
0>
#5550000
1%
1>
b110010 F
#5560000
0%
0>
#5570000
1%
1>
b110011 F
#5580000
0%
0>
#5590000
1%
1>
b110100 F
#5600000
0%
0>
#5610000
1%
1>
b110101 F
#5620000
0%
0>
#5630000
1%
1>
b110110 F
#5640000
0%
0>
#5650000
1%
1>
b110111 F
#5660000
0%
0>
#5670000
1%
1>
b111000 F
#5680000
0%
0>
#5690000
1%
1>
b111001 F
#5700000
0%
0>
#5710000
1%
1>
b111010 F
#5720000
0%
0>
#5730000
1%
1>
b111011 F
#5740000
0%
0>
#5750000
1%
1>
b111100 F
#5760000
0%
0>
#5770000
1%
1>
b111101 F
#5780000
0%
0>
#5790000
1%
1>
b111110 F
#5800000
0%
0>
#5810000
1%
1>
b111111 F
#5820000
0%
0>
#5830000
1%
1>
b1000000 F
#5840000
0%
0>
#5850000
1%
1>
b1000001 F
#5860000
0%
0>
#5870000
1%
1>
b1000010 F
#5880000
0%
0>
#5890000
1%
1>
b1000011 F
#5900000
0%
0>
#5910000
1%
1>
b1000100 F
#5920000
0%
0>
#5930000
1%
1>
b1000101 F
#5940000
0%
0>
#5950000
1%
1>
b1000110 F
#5960000
0%
0>
#5970000
1%
1>
b1000111 F
#5980000
0%
0>
#5990000
1%
1>
b1001000 F
#6000000
0%
0>
#6010000
1%
1>
b1001001 F
#6020000
0%
0>
#6030000
1%
1>
b1001010 F
#6040000
0%
0>
#6050000
1%
1>
b1001011 F
#6060000
0%
0>
#6070000
1%
1>
b1001100 F
#6080000
0%
0>
#6090000
1%
1>
b1001101 F
#6100000
0%
0>
#6110000
1%
1>
b1001110 F
#6120000
0%
0>
#6130000
1%
1>
b1001111 F
#6140000
0%
0>
#6150000
1%
1>
b1010000 F
#6160000
0%
0>
#6170000
1%
1>
b1010001 F
#6180000
0%
0>
#6190000
1%
1>
b1010010 F
#6200000
0%
0>
#6210000
1%
1>
b1010011 F
#6220000
0%
0>
#6230000
1%
1>
b1010100 F
#6240000
0%
0>
#6250000
1%
1>
b1010101 F
#6260000
0%
0>
#6270000
1%
1>
b1010110 F
#6280000
0%
0>
#6290000
1%
1>
b1010111 F
#6300000
0%
0>
#6310000
1%
1>
b1011000 F
#6320000
0%
0>
#6330000
1%
1>
b1011001 F
#6340000
0%
0>
#6350000
1%
1>
b1011010 F
#6360000
0%
0>
#6370000
1%
1>
b1011011 F
#6380000
0%
0>
#6390000
1%
1>
b1011100 F
#6400000
0%
0>
#6410000
1%
1>
b1011101 F
#6420000
0%
0>
#6430000
1%
1>
b1011110 F
#6440000
0%
0>
#6450000
1%
1>
b1011111 F
#6460000
0%
0>
#6470000
1%
1>
b1100000 F
#6480000
0%
0>
#6490000
1%
1>
b1100001 F
#6500000
0%
0>
#6510000
1%
1>
b1100010 F
#6520000
0%
0>
#6530000
1%
1>
b1100011 F
#6540000
0%
0>
#6550000
1%
1>
b1100100 F
#6560000
0%
0>
#6570000
1%
1>
b1100101 F
#6580000
0%
0>
#6590000
1%
1>
b1100110 F
#6600000
0%
0>
#6610000
1%
1>
b1100111 F
#6620000
0%
0>
#6630000
1%
1>
b1101000 F
#6640000
0%
0>
#6650000
1%
1>
b1101001 F
#6660000
0%
0>
#6670000
1%
1>
b1101010 F
#6680000
0%
0>
#6690000
1%
1>
b1101011 F
#6700000
0%
0>
#6710000
1%
1>
b1101100 F
#6720000
0%
0>
#6730000
1%
1>
b1101101 F
#6740000
0%
0>
#6750000
1%
1>
b1101110 F
#6760000
0%
0>
#6770000
1%
1>
b1101111 F
#6780000
0%
0>
#6790000
1%
1>
b1110000 F
#6800000
0%
0>
#6810000
1%
1>
b1110001 F
#6820000
0%
0>
#6830000
1%
1>
b1110010 F
#6840000
0%
0>
#6850000
1%
1>
b1110011 F
#6860000
0%
0>
#6870000
1%
1>
b1110100 F
#6880000
0%
0>
#6890000
1%
1>
b1110101 F
#6900000
0%
0>
#6910000
1%
1>
b1110110 F
#6920000
0%
0>
#6930000
1%
1>
b1110111 F
#6940000
0%
0>
#6950000
1%
1>
b1111000 F
#6960000
0%
0>
#6970000
1%
1>
b1111001 F
#6980000
0%
0>
#6990000
1%
1>
b1111010 F
#7000000
0%
0>
#7010000
1%
1>
b1111011 F
#7020000
0%
0>
#7030000
1%
1>
b1111100 F
#7040000
0%
0>
#7050000
1%
1>
b1111101 F
#7060000
0%
0>
#7070000
1%
1>
b1111110 F
#7080000
0%
0>
#7090000
1%
1>
b1111111 F
#7100000
0%
0>
#7110000
1%
1>
b10000000 F
#7120000
0%
0>
#7130000
1%
1>
b10000001 F
#7140000
0%
0>
#7150000
1%
1>
b10000010 F
#7160000
0%
0>
#7170000
1%
1>
b10000011 F
#7180000
0%
0>
#7190000
1%
1>
b10000100 F
#7200000
0%
0>
#7210000
1%
1>
b10000101 F
#7220000
0%
0>
#7230000
1%
1>
b10000110 F
#7240000
0%
0>
#7250000
1%
1>
b10000111 F
#7260000
0%
0>
#7270000
1%
1>
b10001000 F
#7280000
0%
0>
#7290000
1%
1>
b10001001 F
#7300000
0%
0>
#7310000
1%
1>
b10001010 F
#7320000
0%
0>
#7330000
1%
1>
b10001011 F
#7340000
0%
0>
#7350000
1%
1>
b10001100 F
#7360000
0%
0>
#7370000
1%
1>
b10001101 F
#7380000
0%
0>
#7390000
1%
1>
b10001110 F
#7400000
0%
0>
#7410000
1%
1>
b10001111 F
#7420000
0%
0>
#7430000
1%
1>
b10010000 F
#7440000
0%
0>
#7450000
1%
1>
b10010001 F
#7460000
0%
0>
#7470000
1%
1>
b10010010 F
#7480000
0%
0>
#7490000
1%
1>
b10010011 F
#7500000
0%
0>
#7510000
1%
1>
b10010100 F
#7520000
0%
0>
#7530000
1%
1>
b10010101 F
#7540000
0%
0>
#7550000
1%
1>
b10010110 F
#7560000
0%
0>
#7570000
1%
1>
b10010111 F
#7580000
0%
0>
#7590000
1%
1>
b10011000 F
#7600000
0%
0>
#7610000
1%
1>
b10011001 F
#7620000
0%
0>
#7630000
1%
1>
b10011010 F
#7640000
0%
0>
#7650000
1%
1>
b10011011 F
#7660000
0%
0>
#7670000
1%
1>
b10011100 F
#7680000
0%
0>
#7690000
1%
1>
b10011101 F
#7700000
0%
0>
#7710000
1%
1>
b10011110 F
#7720000
0%
0>
#7730000
1%
1>
b10011111 F
#7740000
0%
0>
#7750000
1%
1>
b10100000 F
#7760000
0%
0>
#7770000
1%
1>
b10100001 F
#7780000
0%
0>
#7790000
1%
1>
b10100010 F
#7800000
0%
0>
#7810000
1%
1>
b10100011 F
#7820000
0%
0>
#7830000
1%
1>
b10100100 F
#7840000
0%
0>
#7850000
1%
1>
b10100101 F
#7860000
0%
0>
#7870000
1%
1>
b10100110 F
#7880000
0%
0>
#7890000
1%
1>
b10100111 F
#7900000
0%
0>
#7910000
1%
1>
b10101000 F
#7920000
0%
0>
#7930000
1%
1>
b10101001 F
#7940000
0%
0>
#7950000
1%
1>
b10101010 F
#7960000
0%
0>
#7970000
1%
1>
b10101011 F
#7980000
0%
0>
#7990000
1%
1>
b10101100 F
#8000000
0%
0>
#8010000
1%
1>
b10101101 F
#8020000
0%
0>
#8030000
1%
1>
b10101110 F
#8040000
0%
0>
#8050000
1%
1>
b10101111 F
#8060000
0%
0>
#8070000
1%
1>
b10110000 F
#8080000
0%
0>
#8090000
1%
1>
b10110001 F
#8100000
0%
0>
#8110000
1%
1>
b10110010 F
#8120000
0%
0>
#8130000
1%
1>
b10110011 F
#8140000
0%
0>
#8150000
1%
1>
b10110100 F
#8160000
0%
0>
#8170000
1%
1>
b10110101 F
#8180000
0%
0>
#8190000
1%
1>
b10110110 F
#8200000
0%
0>
#8210000
1%
1>
b10110111 F
#8220000
0%
0>
#8230000
1%
1>
b10111000 F
#8240000
0%
0>
#8250000
1%
1>
b10111001 F
#8260000
0%
0>
#8270000
1%
1>
b10111010 F
#8280000
0%
0>
#8290000
1%
1>
b10111011 F
#8300000
0%
0>
#8310000
1%
1>
b10111100 F
#8320000
0%
0>
#8330000
1%
1>
b10111101 F
#8340000
0%
0>
#8350000
1%
1>
b10111110 F
#8360000
0%
0>
#8370000
1%
1>
b10111111 F
#8380000
0%
0>
#8390000
1%
1>
b11000000 F
#8400000
0%
0>
#8410000
1%
1>
b11000001 F
#8420000
0%
0>
#8430000
1%
1>
b11000010 F
#8440000
0%
0>
#8450000
1%
1>
b11000011 F
#8460000
0%
0>
#8470000
1%
1>
b11000100 F
#8480000
0%
0>
#8490000
1%
1>
b11000101 F
#8500000
0%
0>
#8510000
1%
1>
b11000110 F
#8520000
0%
0>
#8530000
1%
1>
b11000111 F
#8540000
0%
0>
#8550000
1%
1>
b11001000 F
#8560000
0%
0>
#8570000
1%
1>
b11001001 F
#8580000
0%
0>
#8590000
1%
1>
b11001010 F
#8600000
0%
0>
#8610000
1%
1>
b11001011 F
#8620000
0%
0>
#8630000
1%
1>
b11001100 F
#8640000
0%
0>
#8650000
1%
1>
b11001101 F
#8660000
0%
0>
#8670000
1%
1>
b11001110 F
#8680000
0%
0>
#8690000
1%
1>
b11001111 F
#8700000
0%
0>
#8710000
1%
1>
b11010000 F
#8720000
0%
0>
#8730000
1%
1>
b11010001 F
#8740000
0%
0>
#8750000
1%
1>
b11010010 F
#8760000
0%
0>
#8770000
1%
1>
b11010011 F
#8780000
0%
0>
#8790000
1%
1>
b11010100 F
#8800000
0%
0>
#8810000
1%
1>
b11010101 F
#8820000
0%
0>
#8830000
1%
1>
b11010110 F
#8840000
0%
0>
#8850000
1%
1>
b11010111 F
#8860000
0%
0>
#8870000
1%
1>
b11011000 F
#8880000
b0 5
1'
0%
1@
0>
#8890000
1%
1>
b11011001 F
#8900000
0%
0>
#8910000
1%
1>
b11011010 F
#8920000
0%
0>
#8930000
1%
1>
b11011011 F
#8940000
0%
0>
#8950000
1%
1>
b11011100 F
#8960000
0%
0>
#8970000
1%
1>
b11011101 F
#8980000
0%
0>
#8990000
1%
1>
b11011110 F
#9000000
0%
0>
#9010000
1%
1>
b11011111 F
#9020000
0%
0>
#9030000
1%
1>
b11100000 F
#9040000
0%
0>
#9050000
1%
1>
b11100001 F
#9060000
0%
0>
#9070000
1%
1>
b11100010 F
#9080000
0%
0>
#9090000
1%
1>
b11100011 F
#9100000
0%
0>
#9110000
1%
1>
b11100100 F
#9120000
0%
0>
#9130000
1%
1>
b11100101 F
#9140000
0%
0>
#9150000
1%
1>
b11100110 F
#9160000
0%
0>
#9170000
1%
1>
b11100111 F
#9180000
0%
0>
#9190000
1%
1>
b11101000 F
#9200000
0%
0>
#9210000
1%
1>
b11101001 F
#9220000
0%
0>
#9230000
1%
1>
b11101010 F
#9240000
0%
0>
#9250000
1%
1>
b11101011 F
#9260000
0%
0>
#9270000
1%
1>
b11101100 F
#9280000
0%
0>
#9290000
1%
1>
b11101101 F
#9300000
0%
0>
#9310000
1%
1>
b11101110 F
#9320000
0%
0>
#9330000
1%
1>
b11101111 F
#9340000
0%
0>
#9350000
1%
1>
b11110000 F
#9360000
0%
0>
#9370000
1%
1>
b11110001 F
#9380000
0%
0>
#9390000
1%
1>
b11110010 F
#9400000
0%
0>
#9410000
1%
1>
b11110011 F
#9420000
0%
0>
#9430000
1%
1>
b11110100 F
#9440000
0%
0>
#9450000
1%
1>
b11110101 F
#9460000
0%
0>
#9470000
1%
1>
b11110110 F
#9480000
0%
0>
#9490000
1%
1>
b11110111 F
#9500000
0%
0>
#9510000
1%
1>
b11111000 F
#9520000
0%
0>
#9530000
1%
1>
b11111001 F
#9540000
0%
0>
#9550000
1%
1>
b11111010 F
#9560000
0%
0>
#9570000
1%
1>
b11111011 F
#9580000
0%
0>
#9590000
1%
1>
b11111100 F
#9600000
0%
0>
#9610000
1%
1>
b11111101 F
#9620000
0%
0>
#9630000
1%
1>
b11111110 F
#9640000
0%
0>
#9650000
1%
1>
b11111111 F
#9660000
0%
0>
#9670000
1%
1>
b100000000 F
#9680000
0%
0>
#9690000
1%
1>
b100000001 F
#9700000
0%
0>
#9710000
1%
1>
b100000010 F
#9720000
0%
0>
#9730000
1%
1>
b100000011 F
