uart_tx_tb.vcd
$date
	Fri May 23 09:13:39 2025
$end
$version
	ModelSim Version 2020.1
$end
$timescale
	1ps
$end

$scope module uart_tx_tb $end
$var parameter 32 ! CLK_RATE $end
$var parameter 32 " BAUD_RATE $end
$var parameter 32 # CLOCKS_PER_BIT $end
$var parameter 32 $ BIT_PERIOD $end
$var reg 1 % clk $end
$var reg 1 & rstn $end
$var reg 8 ' data_in [7:0] $end
$var reg 1 ( data_valid $end
$var wire 1 ) tx $end
$var wire 1 * busy $end
$var wire 1 + state_bits [1] $end
$var wire 1 , state_bits [0] $end

$scope task transmit_byte $end
$var reg 8 - data [7:0] $end
$upscope $end

$scope task verify_transmission $end
$var reg 8 . data [7:0] $end
$var integer 32 / i $end
$var reg 10 0 frame [9:0] $end
$upscope $end

$scope module dut $end
$var parameter 32 1 CLK_RATE $end
$var parameter 32 2 BAUD_RATE $end
$var parameter 32 3 BITS_PER_WORD $end
$var parameter 32 4 CLOCKS_PER_BIT $end
$var parameter 2 5 STATE_IDLE $end
$var parameter 2 6 STATE_START $end
$var parameter 2 7 STATE_DATA $end
$var parameter 2 8 STATE_STOP $end
$var wire 1 9 clk $end
$var wire 1 : rstn $end
$var wire 1 ; data_in [7] $end
$var wire 1 < data_in [6] $end
$var wire 1 = data_in [5] $end
$var wire 1 > data_in [4] $end
$var wire 1 ? data_in [3] $end
$var wire 1 @ data_in [2] $end
$var wire 1 A data_in [1] $end
$var wire 1 B data_in [0] $end
$var wire 1 C data_valid $end
$var reg 1 D tx $end
$var reg 1 E busy $end
$var reg 2 F state_bits [1:0] $end
$var reg 2 G state [1:0] $end
$var reg 9 H clk_count [8:0] $end
$var reg 3 I bit_index [2:0] $end
$var reg 8 J tx_data [7:0] $end
$upscope $end
$upscope $end
$enddefinitions $end
#0
$dumpvars
0%
0&
b0 '
0(
1D
0E
b0 F
b0 G
b0 H
b0 I
b0 J
bx -
bx .
bx 0
b10111110101111000010000000 !
b11100001000000000 "
b110110010 #
b10000111101000 $
b10111110101111000010000000 1
b11100001000000000 2
b1000 3
b110110010 4
b0 5
b1 6
b10 7
b11 8
bx /
1)
0*
0,
0+
0C
0B
0A
0@
0?
0>
0=
0<
0;
0:
09
$end
#10000
1%
19
#20000
0%
09
#30000
1%
19
#40000
0%
09
#50000
1%
19
#60000
0%
09
#70000
1%
19
#80000
0%
09
#90000
1%
19
#100000
1&
0%
1:
09
#110000
1%
19
#120000
0%
09
#130000
1%
19
#140000
0%
09
#150000
1%
19
#160000
0%
09
#170000
1%
19
#180000
0%
09
#190000
1%
19
#200000
b1010101 -
b1010101 .
b1010101010 0
0%
09
#210000
1%
19
b1010101 '
1(
1B
1@
1>
1<
1C
#220000
0%
09
#230000
1%
19
0(
0C
b1010101 J
b1 G
1E
1*
#240000
0%
09
#250000
1%
19
b1 F
0D
b1 H
0)
1,
#260000
0%
09
#270000
1%
19
b10 H
#280000
0%
09
#290000
1%
19
b11 H
#300000
0%
09
#310000
1%
19
b100 H
#320000
0%
09
#330000
1%
19
b101 H
#340000
0%
09
#350000
1%
19
b110 H
#360000
0%
09
#370000
1%
19
b111 H
#380000
0%
09
#390000
1%
19
b1000 H
#400000
0%
09
#410000
1%
19
b1001 H
#420000
0%
09
#430000
1%
19
b1010 H
#440000
0%
09
#450000
1%
19
b1011 H
#460000
0%
09
#470000
1%
19
b1100 H
#480000
0%
09
#490000
1%
19
b1101 H
#500000
0%
09
#510000
1%
19
b1110 H
#520000
0%
09
#530000
1%
19
b1111 H
#540000
0%
09
#550000
1%
19
b10000 H
#560000
0%
09
#570000
1%
19
b10001 H
#580000
0%
09
#590000
1%
19
b10010 H
#600000
0%
09
#610000
1%
19
b10011 H
#620000
0%
09
#630000
1%
19
b10100 H
#640000
0%
09
#650000
1%
19
b10101 H
#660000
0%
09
#670000
1%
19
b10110 H
#680000
0%
09
#690000
1%
19
b10111 H
#700000
0%
09
#710000
1%
19
b11000 H
#720000
0%
09
#730000
1%
19
b11001 H
#740000
0%
09
#750000
1%
19
b11010 H
#760000
0%
09
#770000
1%
19
b11011 H
#780000
0%
09
#790000
1%
19
b11100 H
#800000
0%
09
#810000
1%
19
b11101 H
#820000
0%
09
#830000
1%
19
b11110 H
#840000
0%
09
#850000
1%
19
b11111 H
#860000
0%
09
#870000
1%
19
b100000 H
#880000
0%
09
#890000
1%
19
b100001 H
#900000
0%
09
#910000
1%
19
b100010 H
#920000
0%
09
#930000
1%
19
b100011 H
#940000
0%
09
#950000
1%
19
b100100 H
#960000
0%
09
#970000
1%
19
b100101 H
#980000
0%
09
#990000
1%
19
b100110 H
#1000000
0%
09
#1010000
1%
19
b100111 H
#1020000
0%
09
#1030000
1%
19
b101000 H
#1040000
0%
09
#1050000
1%
19
b101001 H
#1060000
0%
09
#1070000
1%
19
b101010 H
#1080000
0%
09
#1090000
1%
19
b101011 H
#1100000
0%
09
#1110000
1%
19
b101100 H
#1120000
0%
09
#1130000
1%
19
b101101 H
#1140000
0%
09
#1150000
1%
19
b101110 H
#1160000
0%
09
#1170000
1%
19
b101111 H
#1180000
0%
09
#1190000
1%
19
b110000 H
#1200000
0%
09
#1210000
1%
19
b110001 H
#1220000
0%
09
#1230000
1%
19
b110010 H
#1240000
0%
09
#1250000
1%
19
b110011 H
#1260000
0%
09
#1270000
1%
19
b110100 H
#1280000
0%
09
#1290000
1%
19
b110101 H
#1300000
0%
09
#1310000
1%
19
b110110 H
#1320000
0%
09
#1330000
1%
19
b110111 H
#1340000
0%
09
#1350000
1%
19
b111000 H
#1360000
0%
09
#1370000
1%
19
b111001 H
#1380000
0%
09
#1390000
1%
19
b111010 H
#1400000
0%
09
#1410000
1%
19
b111011 H
#1420000
0%
09
#1430000
1%
19
b111100 H
#1440000
0%
09
#1450000
1%
19
b111101 H
#1460000
0%
09
#1470000
1%
19
b111110 H
#1480000
0%
09
#1490000
1%
19
b111111 H
#1500000
0%
09
#1510000
1%
19
b1000000 H
#1520000
0%
09
#1530000
1%
19
b1000001 H
#1540000
0%
09
#1550000
1%
19
b1000010 H
#1560000
0%
09
#1570000
1%
19
b1000011 H
#1580000
0%
09
#1590000
1%
19
b1000100 H
#1600000
0%
09
#1610000
1%
19
b1000101 H
#1620000
0%
09
#1630000
1%
19
b1000110 H
#1640000
0%
09
#1650000
1%
19
b1000111 H
#1660000
0%
09
#1670000
1%
19
b1001000 H
#1680000
0%
09
#1690000
1%
19
b1001001 H
#1700000
0%
09
#1710000
1%
19
b1001010 H
#1720000
0%
09
#1730000
1%
19
b1001011 H
#1740000
0%
09
#1750000
1%
19
b1001100 H
#1760000
0%
09
#1770000
1%
19
b1001101 H
#1780000
0%
09
#1790000
1%
19
b1001110 H
#1800000
0%
09
#1810000
1%
19
b1001111 H
#1820000
0%
09
#1830000
1%
19
b1010000 H
#1840000
0%
09
#1850000
1%
19
b1010001 H
#1860000
0%
09
#1870000
1%
19
b1010010 H
#1880000
0%
09
#1890000
1%
19
b1010011 H
#1900000
0%
09
#1910000
1%
19
b1010100 H
#1920000
0%
09
#1930000
1%
19
b1010101 H
#1940000
0%
09
#1950000
1%
19
b1010110 H
#1960000
0%
09
#1970000
1%
19
b1010111 H
#1980000
0%
09
#1990000
1%
19
b1011000 H
#2000000
0%
09
#2010000
1%
19
b1011001 H
#2020000
0%
09
#2030000
1%
19
b1011010 H
#2040000
0%
09
#2050000
1%
19
b1011011 H
#2060000
0%
09
#2070000
1%
19
b1011100 H
#2080000
0%
09
#2090000
1%
19
b1011101 H
#2100000
0%
09
#2110000
1%
19
b1011110 H
#2120000
0%
09
#2130000
1%
19
b1011111 H
#2140000
0%
09
#2150000
1%
19
b1100000 H
#2160000
0%
09
#2170000
1%
19
b1100001 H
#2180000
0%
09
#2190000
1%
19
b1100010 H
#2200000
0%
09
#2210000
1%
19
b1100011 H
#2220000
0%
09
#2230000
1%
19
b1100100 H
#2240000
0%
09
#2250000
1%
19
b1100101 H
#2260000
0%
09
#2270000
1%
19
b1100110 H
#2280000
0%
09
#2290000
1%
19
b1100111 H
#2300000
0%
09
#2310000
1%
19
b1101000 H
#2320000
0%
09
#2330000
1%
19
b1101001 H
#2340000
0%
09
#2350000
1%
19
b1101010 H
#2360000
0%
09
#2370000
1%
19
b1101011 H
#2380000
0%
09
#2390000
1%
19
b1101100 H
#2400000
0%
09
#2410000
1%
19
b1101101 H
#2420000
0%
09
#2430000
1%
19
b1101110 H
#2440000
0%
09
#2450000
1%
19
b1101111 H
#2460000
0%
09
#2470000
1%
19
b1110000 H
#2480000
0%
09
#2490000
1%
19
b1110001 H
#2500000
0%
09
#2510000
1%
19
b1110010 H
#2520000
0%
09
#2530000
1%
19
b1110011 H
#2540000
0%
09
#2550000
1%
19
b1110100 H
#2560000
0%
09
#2570000
1%
19
b1110101 H
#2580000
0%
09
#2590000
1%
19
b1110110 H
#2600000
0%
09
#2610000
1%
19
b1110111 H
#2620000
0%
09
#2630000
1%
19
b1111000 H
#2640000
0%
09
#2650000
1%
19
b1111001 H
#2660000
0%
09
#2670000
1%
19
b1111010 H
#2680000
0%
09
#2690000
1%
19
b1111011 H
#2700000
0%
09
#2710000
1%
19
b1111100 H
#2720000
0%
09
#2730000
1%
19
b1111101 H
#2740000
0%
09
#2750000
1%
19
b1111110 H
#2760000
0%
09
#2770000
1%
19
b1111111 H
#2780000
0%
09
#2790000
1%
19
b10000000 H
#2800000
0%
09
#2810000
1%
19
b10000001 H
#2820000
0%
09
#2830000
1%
19
b10000010 H
#2840000
0%
09
#2850000
1%
19
b10000011 H
#2860000
0%
09
#2870000
1%
19
b10000100 H
#2880000
0%
09
#2890000
1%
19
b10000101 H
#2900000
0%
09
#2910000
1%
19
b10000110 H
#2920000
0%
09
#2930000
1%
19
b10000111 H
#2940000
0%
09
#2950000
1%
19
b10001000 H
#2960000
0%
09
#2970000
1%
19
b10001001 H
#2980000
0%
09
#2990000
1%
19
b10001010 H
#3000000
0%
09
#3010000
1%
19
b10001011 H
#3020000
0%
09
#3030000
1%
19
b10001100 H
#3040000
0%
09
#3050000
1%
19
b10001101 H
#3060000
0%
09
#3070000
1%
19
b10001110 H
#3080000
0%
09
#3090000
1%
19
b10001111 H
#3100000
0%
09
#3110000
1%
19
b10010000 H
#3120000
0%
09
#3130000
1%
19
b10010001 H
#3140000
0%
09
#3150000
1%
19
b10010010 H
#3160000
0%
09
#3170000
1%
19
b10010011 H
#3180000
0%
09
#3190000
1%
19
b10010100 H
#3200000
0%
09
#3210000
1%
19
b10010101 H
#3220000
0%
09
#3230000
1%
19
b10010110 H
#3240000
0%
09
#3250000
1%
19
b10010111 H
#3260000
0%
09
#3270000
1%
19
b10011000 H
#3280000
0%
09
#3290000
1%
19
b10011001 H
#3300000
0%
09
#3310000
1%
19
b10011010 H
#3320000
0%
09
#3330000
1%
19
b10011011 H
#3340000
0%
09
#3350000
1%
19
b10011100 H
#3360000
0%
09
#3370000
1%
19
b10011101 H
#3380000
0%
09
#3390000
1%
19
b10011110 H
#3400000
0%
09
#3410000
1%
19
b10011111 H
#3420000
0%
09
#3430000
1%
19
b10100000 H
#3440000
0%
09
#3450000
1%
19
b10100001 H
#3460000
0%
09
#3470000
1%
19
b10100010 H
#3480000
0%
09
#3490000
1%
19
b10100011 H
#3500000
0%
09
#3510000
1%
19
b10100100 H
#3520000
0%
09
#3530000
1%
19
b10100101 H
#3540000
0%
09
#3550000
1%
19
b10100110 H
#3560000
0%
09
#3570000
1%
19
b10100111 H
#3580000
0%
09
#3590000
1%
19
b10101000 H
#3600000
0%
09
#3610000
1%
19
b10101001 H
#3620000
0%
09
#3630000
1%
19
b10101010 H
#3640000
0%
09
#3650000
1%
19
b10101011 H
#3660000
0%
09
#3670000
1%
19
b10101100 H
#3680000
0%
09
#3690000
1%
19
b10101101 H
#3700000
0%
09
#3710000
1%
19
b10101110 H
#3720000
0%
09
#3730000
1%
19
b10101111 H
#3740000
0%
09
#3750000
1%
19
b10110000 H
#3760000
0%
09
#3770000
1%
19
b10110001 H
#3780000
0%
09
#3790000
1%
19
b10110010 H
#3800000
0%
09
#3810000
1%
19
b10110011 H
#3820000
0%
09
#3830000
1%
19
b10110100 H
#3840000
0%
09
#3850000
1%
19
b10110101 H
#3860000
0%
09
#3870000
1%
19
b10110110 H
#3880000
0%
09
#3890000
1%
19
b10110111 H
#3900000
0%
09
#3910000
1%
19
b10111000 H
#3920000
0%
09
#3930000
1%
19
b10111001 H
#3940000
0%
09
#3950000
1%
19
b10111010 H
#3960000
0%
09
#3970000
1%
19
b10111011 H
#3980000
0%
09
#3990000
1%
19
b10111100 H
#4000000
0%
09
#4010000
1%
19
b10111101 H
#4020000
0%
09
#4030000
1%
19
b10111110 H
#4040000
0%
09
#4050000
1%
19
b10111111 H
#4060000
0%
09
#4070000
1%
19
b11000000 H
#4080000
0%
09
#4090000
1%
19
b11000001 H
#4100000
0%
09
#4110000
1%
19
b11000010 H
#4120000
0%
09
#4130000
1%
19
b11000011 H
#4140000
0%
09
#4150000
1%
19
b11000100 H
#4160000
0%
09
#4170000
1%
19
b11000101 H
#4180000
0%
09
#4190000
1%
19
b11000110 H
#4200000
0%
09
#4210000
1%
19
b11000111 H
#4220000
0%
09
#4230000
1%
19
b11001000 H
#4240000
0%
09
#4250000
1%
19
b11001001 H
#4260000
0%
09
#4270000
1%
19
b11001010 H
#4280000
0%
09
#4290000
1%
19
b11001011 H
#4300000
0%
09
#4310000
1%
19
b11001100 H
#4320000
0%
09
#4330000
1%
19
b11001101 H
#4340000
0%
09
#4350000
1%
19
b11001110 H
#4360000
0%
09
#4370000
1%
19
b11001111 H
#4380000
0%
09
#4390000
1%
19
b11010000 H
#4400000
0%
09
#4410000
1%
19
b11010001 H
#4420000
0%
09
#4430000
1%
19
b11010010 H
#4440000
0%
09
#4450000
1%
19
b11010011 H
#4460000
0%
09
#4470000
1%
19
b11010100 H
#4480000
0%
09
#4490000
1%
19
b11010101 H
#4500000
0%
09
#4510000
1%
19
b11010110 H
#4520000
0%
09
#4530000
1%
19
b11010111 H
#4540000
0%
09
#4550000
1%
19
b11011000 H
#4560000
0%
09
#4570000
1%
19
b11011001 H
#4580000
0%
09
#4590000
b0 /
1%
19
b11011010 H
#4600000
0%
09
#4610000
1%
19
b11011011 H
#4620000
0%
09
#4630000
1%
19
b11011100 H
#4640000
0%
09
#4650000
1%
19
b11011101 H
#4660000
0%
09
#4670000
1%
19
b11011110 H
#4680000
0%
09
#4690000
1%
19
b11011111 H
#4700000
0%
09
#4710000
1%
19
b11100000 H
#4720000
0%
09
#4730000
1%
19
b11100001 H
#4740000
0%
09
#4750000
1%
19
b11100010 H
#4760000
0%
09
#4770000
1%
19
b11100011 H
#4780000
0%
09
#4790000
1%
19
b11100100 H
#4800000
0%
09
#4810000
1%
19
b11100101 H
#4820000
0%
09
#4830000
1%
19
b11100110 H
#4840000
0%
09
#4850000
1%
19
b11100111 H
#4860000
0%
09
#4870000
1%
19
b11101000 H
#4880000
0%
09
#4890000
1%
19
b11101001 H
#4900000
0%
09
#4910000
1%
19
b11101010 H
#4920000
0%
09
#4930000
1%
19
b11101011 H
#4940000
0%
09
#4950000
1%
19
b11101100 H
#4960000
0%
09
#4970000
1%
19
b11101101 H
#4980000
0%
09
#4990000
1%
19
b11101110 H
#5000000
0%
09
#5010000
1%
19
b11101111 H
#5020000
0%
09
#5030000
1%
19
b11110000 H
#5040000
0%
09
#5050000
1%
19
b11110001 H
#5060000
0%
09
#5070000
1%
19
b11110010 H
#5080000
0%
09
#5090000
1%
19
b11110011 H
#5100000
0%
09
#5110000
1%
19
b11110100 H
#5120000
0%
09
#5130000
1%
19
b11110101 H
#5140000
0%
09
#5150000
1%
19
b11110110 H
#5160000
0%
09
#5170000
1%
19
b11110111 H
#5180000
0%
09
#5190000
1%
19
b11111000 H
#5200000
0%
09
#5210000
1%
19
b11111001 H
#5220000
0%
09
#5230000
1%
19
b11111010 H
#5240000
0%
09
#5250000
1%
19
b11111011 H
#5260000
0%
09
#5270000
1%
19
b11111100 H
#5280000
0%
09
#5290000
1%
19
b11111101 H
#5300000
0%
09
#5310000
1%
19
b11111110 H
#5320000
0%
09
#5330000
1%
19
b11111111 H
#5340000
0%
09
#5350000
1%
19
b100000000 H
#5360000
0%
09
#5370000
1%
19
b100000001 H
#5380000
0%
09
#5390000
1%
19
b100000010 H
#5400000
0%
09
#5410000
1%
19
b100000011 H
#5420000
0%
09
#5430000
1%
19
b100000100 H
#5440000
0%
09
#5450000
1%
19
b100000101 H
#5460000
0%
09
#5470000
1%
19
b100000110 H
#5480000
0%
09
#5490000
1%
19
b100000111 H
#5500000
0%
09
#5510000
1%
19
b100001000 H
#5520000
0%
09
#5530000
1%
19
b100001001 H
#5540000
0%
09
#5550000
1%
19
b100001010 H
#5560000
0%
09
#5570000
1%
19
b100001011 H
#5580000
0%
09
#5590000
1%
19
b100001100 H
#5600000
0%
09
#5610000
1%
19
b100001101 H
#5620000
0%
09
#5630000
1%
19
b100001110 H
#5640000
0%
09
#5650000
1%
19
b100001111 H
#5660000
0%
09
#5670000
1%
19
b100010000 H
#5680000
0%
09
#5690000
1%
19
b100010001 H
#5700000
0%
09
#5710000
1%
19
b100010010 H
#5720000
0%
09
#5730000
1%
19
b100010011 H
#5740000
0%
09
#5750000
1%
19
b100010100 H
#5760000
0%
09
#5770000
1%
19
b100010101 H
#5780000
0%
09
#5790000
1%
19
b100010110 H
#5800000
0%
09
#5810000
1%
19
b100010111 H
#5820000
0%
09
#5830000
1%
19
b100011000 H
#5840000
0%
09
#5850000
1%
19
b100011001 H
#5860000
0%
09
#5870000
1%
19
b100011010 H
#5880000
0%
09
#5890000
1%
19
b100011011 H
#5900000
0%
09
#5910000
1%
19
b100011100 H
#5920000
0%
09
#5930000
1%
19
b100011101 H
#5940000
0%
09
#5950000
1%
19
b100011110 H
#5960000
0%
09
#5970000
1%
19
b100011111 H
#5980000
0%
09
#5990000
1%
19
b100100000 H
#6000000
0%
09
#6010000
1%
19
b100100001 H
#6020000
0%
09
#6030000
1%
19
b100100010 H
#6040000
0%
09
#6050000
1%
19
b100100011 H
#6060000
0%
09
#6070000
1%
19
b100100100 H
#6080000
0%
09
#6090000
1%
19
b100100101 H
#6100000
0%
09
#6110000
1%
19
b100100110 H
#6120000
0%
09
#6130000
1%
19
b100100111 H
#6140000
0%
09
#6150000
1%
19
b100101000 H
#6160000
0%
09
#6170000
1%
19
b100101001 H
#6180000
0%
09
#6190000
1%
19
b100101010 H
#6200000
0%
09
#6210000
1%
19
b100101011 H
#6220000
0%
09
#6230000
1%
19
b100101100 H
#6240000
0%
09
#6250000
1%
19
b100101101 H
#6260000
0%
09
#6270000
1%
19
b100101110 H
#6280000
0%
09
#6290000
1%
19
b100101111 H
#6300000
0%
09
#6310000
1%
19
b100110000 H
#6320000
0%
09
#6330000
1%
19
b100110001 H
#6340000
0%
09
#6350000
1%
19
b100110010 H
#6360000
0%
09
#6370000
1%
19
b100110011 H
#6380000
0%
09
#6390000
1%
19
b100110100 H
#6400000
0%
09
#6410000
1%
19
b100110101 H
#6420000
0%
09
#6430000
1%
19
b100110110 H
#6440000
0%
09
#6450000
1%
19
b100110111 H
#6460000
0%
09
#6470000
1%
19
b100111000 H
#6480000
0%
09
#6490000
1%
19
b100111001 H
#6500000
0%
09
#6510000
1%
19
b100111010 H
#6520000
0%
09
#6530000
1%
19
b100111011 H
#6540000
0%
09
#6550000
1%
19
b100111100 H
#6560000
0%
09
#6570000
1%
19
b100111101 H
#6580000
0%
09
#6590000
1%
19
b100111110 H
#6600000
0%
09
#6610000
1%
19
b100111111 H
#6620000
0%
09
#6630000
1%
19
b101000000 H
#6640000
0%
09
#6650000
1%
19
b101000001 H
#6660000
0%
09
#6670000
1%
19
b101000010 H
#6680000
0%
09
#6690000
1%
19
b101000011 H
#6700000
0%
09
#6710000
1%
19
b101000100 H
#6720000
0%
09
#6730000
1%
19
b101000101 H
#6740000
0%
09
#6750000
1%
19
b101000110 H
#6760000
0%
09
#6770000
1%
19
b101000111 H
#6780000
0%
09
#6790000
1%
19
b101001000 H
#6800000
0%
09
#6810000
1%
19
b101001001 H
#6820000
0%
09
#6830000
1%
19
b101001010 H
#6840000
0%
09
#6850000
1%
19
b101001011 H
#6860000
0%
09
#6870000
1%
19
b101001100 H
#6880000
0%
09
#6890000
1%
19
b101001101 H
#6900000
0%
09
#6910000
1%
19
b101001110 H
#6920000
0%
09
#6930000
1%
19
b101001111 H
#6940000
0%
09
#6950000
1%
19
b101010000 H
#6960000
0%
09
#6970000
1%
19
b101010001 H
#6980000
0%
09
#6990000
1%
19
b101010010 H
#7000000
0%
09
#7010000
1%
19
b101010011 H
#7020000
0%
09
#7030000
1%
19
b101010100 H
#7040000
0%
09
#7050000
1%
19
b101010101 H
#7060000
0%
09
#7070000
1%
19
b101010110 H
#7080000
0%
09
#7090000
1%
19
b101010111 H
#7100000
0%
09
#7110000
1%
19
b101011000 H
#7120000
0%
09
#7130000
1%
19
b101011001 H
#7140000
0%
09
#7150000
1%
19
b101011010 H
#7160000
0%
09
#7170000
1%
19
b101011011 H
#7180000
0%
09
#7190000
1%
19
b101011100 H
#7200000
0%
09
#7210000
1%
19
b101011101 H
#7220000
0%
09
#7230000
1%
19
b101011110 H
#7240000
0%
09
#7250000
1%
19
b101011111 H
#7260000
0%
09
#7270000
1%
19
b101100000 H
#7280000
0%
09
#7290000
1%
19
b101100001 H
#7300000
0%
09
#7310000
1%
19
b101100010 H
#7320000
0%
09
#7330000
1%
19
b101100011 H
#7340000
0%
09
#7350000
1%
19
b101100100 H
#7360000
0%
09
#7370000
1%
19
b101100101 H
#7380000
0%
09
#7390000
1%
19
b101100110 H
#7400000
0%
09
#7410000
1%
19
b101100111 H
#7420000
0%
09
#7430000
1%
19
b101101000 H
#7440000
0%
09
#7450000
1%
19
b101101001 H
#7460000
0%
09
#7470000
1%
19
b101101010 H
#7480000
0%
09
#7490000
1%
19
b101101011 H
#7500000
0%
09
#7510000
1%
19
b101101100 H
#7520000
0%
09
#7530000
1%
19
b101101101 H
#7540000
0%
09
#7550000
1%
19
b101101110 H
#7560000
0%
09
#7570000
1%
19
b101101111 H
#7580000
0%
09
#7590000
1%
19
b101110000 H
#7600000
0%
09
#7610000
1%
19
b101110001 H
#7620000
0%
09
#7630000
1%
19
b101110010 H
#7640000
0%
09
#7650000
1%
19
b101110011 H
#7660000
0%
09
#7670000
1%
19
b101110100 H
#7680000
0%
09
#7690000
1%
19
b101110101 H
#7700000
0%
09
#7710000
1%
19
b101110110 H
#7720000
0%
09
#7730000
1%
19
b101110111 H
#7740000
0%
09
#7750000
1%
19
b101111000 H
#7760000
0%
09
#7770000
1%
19
b101111001 H
#7780000
0%
09
#7790000
1%
19
b101111010 H
#7800000
0%
09
#7810000
1%
19
b101111011 H
#7820000
0%
09
#7830000
1%
19
b101111100 H
#7840000
0%
09
#7850000
1%
19
b101111101 H
#7860000
0%
09
#7870000
1%
19
b101111110 H
#7880000
0%
09
#7890000
1%
19
b101111111 H
#7900000
0%
09
#7910000
1%
19
b110000000 H
#7920000
0%
09
#7930000
1%
19
b110000001 H
#7940000
0%
09
#7950000
1%
19
b110000010 H
#7960000
0%
09
#7970000
1%
19
b110000011 H
#7980000
0%
09
#7990000
1%
19
b110000100 H
#8000000
0%
09
#8010000
1%
19
b110000101 H
#8020000
0%
09
#8030000
1%
19
b110000110 H
#8040000
0%
09
#8050000
1%
19
b110000111 H
#8060000
0%
09
#8070000
1%
19
b110001000 H
#8080000
0%
09
#8090000
1%
19
b110001001 H
#8100000
0%
09
#8110000
1%
19
b110001010 H
#8120000
0%
09
#8130000
1%
19
b110001011 H
#8140000
0%
09
#8150000
1%
19
b110001100 H
#8160000
0%
09
#8170000
1%
19
b110001101 H
#8180000
0%
09
#8190000
1%
19
b110001110 H
#8200000
0%
09
#8210000
1%
19
b110001111 H
#8220000
0%
09
#8230000
1%
19
b110010000 H
#8240000
0%
09
#8250000
1%
19
b110010001 H
#8260000
0%
09
#8270000
1%
19
b110010010 H
#8280000
0%
09
#8290000
1%
19
b110010011 H
#8300000
0%
09
#8310000
1%
19
b110010100 H
#8320000
0%
09
#8330000
1%
19
b110010101 H
#8340000
0%
09
#8350000
1%
19
b110010110 H
#8360000
0%
09
#8370000
1%
19
b110010111 H
#8380000
0%
09
#8390000
1%
19
b110011000 H
#8400000
0%
09
#8410000
1%
19
b110011001 H
#8420000
0%
09
#8430000
1%
19
b110011010 H
#8440000
0%
09
#8450000
1%
19
b110011011 H
#8460000
0%
09
#8470000
1%
19
b110011100 H
#8480000
0%
09
#8490000
1%
19
b110011101 H
#8500000
0%
09
#8510000
1%
19
b110011110 H
#8520000
0%
09
#8530000
1%
19
b110011111 H
#8540000
0%
09
#8550000
1%
19
b110100000 H
#8560000
0%
09
#8570000
1%
19
b110100001 H
#8580000
0%
09
#8590000
1%
19
b110100010 H
#8600000
0%
09
#8610000
1%
19
b110100011 H
#8620000
0%
09
#8630000
1%
19
b110100100 H
#8640000
0%
09
#8650000
1%
19
b110100101 H
#8660000
0%
09
#8670000
1%
19
b110100110 H
#8680000
0%
09
#8690000
1%
19
b110100111 H
#8700000
0%
09
#8710000
1%
19
b110101000 H
#8720000
0%
09
#8730000
1%
19
b110101001 H
#8740000
0%
09
#8750000
1%
19
b110101010 H
#8760000
0%
09
#8770000
1%
19
b110101011 H
#8780000
0%
09
#8790000
1%
19
b110101100 H
#8800000
0%
09
#8810000
1%
19
b110101101 H
#8820000
0%
09
#8830000
1%
19
b110101110 H
#8840000
0%
09
#8850000
1%
19
b110101111 H
#8860000
0%
09
#8870000
1%
19
b110110000 H
#8880000
0%
09
#8890000
1%
19
b110110001 H
#8900000
0%
09
#8910000
1%
19
b0 H
b10 G
#8920000
0%
09
#8930000
1%
19
b11 F
1D
b1 H
1)
1+
#8940000
0%
09
#8950000
1%
19
b10 H
#8960000
0%
09
#8970000
1%
19
b11 H
#8980000
0%
09
#8990000
1%
19
b100 H
#9000000
0%
09
#9010000
1%
19
b101 H
#9020000
0%
09
#9030000
1%
19
b110 H
#9040000
0%
09
#9050000
1%
19
b111 H
#9060000
0%
09
#9070000
1%
19
b1000 H
#9080000
0%
09
#9090000
1%
19
b1001 H
#9100000
0%
09
#9110000
1%
19
b1010 H
#9120000
0%
09
#9130000
1%
19
b1011 H
#9140000
0%
09
#9150000
1%
19
b1100 H
#9160000
0%
09
#9170000
1%
19
b1101 H
#9180000
0%
09
#9190000
1%
19
b1110 H
#9200000
0%
09
#9210000
1%
19
b1111 H
#9220000
0%
09
#9230000
1%
19
b10000 H
#9240000
0%
09
#9250000
1%
19
b10001 H
#9260000
0%
09
#9270000
1%
19
b10010 H
#9280000
0%
09
#9290000
1%
19
b10011 H
#9300000
0%
09
#9310000
1%
19
b10100 H
#9320000
0%
09
#9330000
1%
19
b10101 H
#9340000
0%
09
#9350000
1%
19
b10110 H
#9360000
0%
09
#9370000
1%
19
b10111 H
#9380000
0%
09
#9390000
1%
19
b11000 H
#9400000
0%
09
#9410000
1%
19
b11001 H
#9420000
0%
09
#9430000
1%
19
b11010 H
#9440000
0%
09
#9450000
1%
19
b11011 H
#9460000
0%
09
#9470000
1%
19
b11100 H
#9480000
0%
09
#9490000
1%
19
b11101 H
#9500000
0%
09
#9510000
1%
19
b11110 H
#9520000
0%
09
#9530000
1%
19
b11111 H
#9540000
0%
09
#9550000
1%
19
b100000 H
#9560000
0%
09
#9570000
1%
19
b100001 H
#9580000
0%
09
#9590000
1%
19
b100010 H
#9600000
0%
09
#9610000
1%
19
b100011 H
#9620000
0%
09
#9630000
1%
19
b100100 H
#9640000
0%
09
#9650000
1%
19
b100101 H
#9660000
0%
09
#9670000
1%
19
b100110 H
#9680000
0%
09
#9690000
1%
19
b100111 H
#9700000
0%
09
#9710000
1%
19
b101000 H
#9720000
0%
09
#9730000
1%
19
b101001 H
#9740000
0%
09
#9750000
1%
19
b101010 H
#9760000
0%
09
#9770000
1%
19
b101011 H
#9780000
0%
09
#9790000
1%
19
b101100 H
#9800000
0%
09
#9810000
1%
19
b101101 H
#9820000
0%
09
#9830000
1%
19
b101110 H
#9840000
0%
09
#9850000
1%
19
b101111 H
#9860000
0%
09
#9870000
1%
19
b110000 H
#9880000
0%
09
#9890000
1%
19
b110001 H
#9900000
0%
09
#9910000
1%
19
b110010 H
#9920000
0%
09
#9930000
1%
19
b110011 H
#9940000
0%
09
#9950000
1%
19
b110100 H
#9960000
0%
09
#9970000
1%
19
b110101 H
#9980000
0%
09
#9990000
1%
19
b110110 H
#10000000
0%
09
#10010000
1%
19
b110111 H
#10020000
0%
09
#10030000
1%
19
b111000 H
#10040000
0%
09
#10050000
1%
19
b111001 H
#10060000
0%
09
#10070000
1%
19
b111010 H
#10080000
0%
09
#10090000
1%
19
b111011 H
#10100000
0%
09
#10110000
1%
19
b111100 H
#10120000
0%
09
#10130000
1%
19
b111101 H
#10140000
0%
09
#10150000
1%
19
b111110 H
#10160000
0%
09
#10170000
1%
19
b111111 H
#10180000
0%
09
#10190000
1%
19
b1000000 H
#10200000
0%
09
#10210000
1%
19
b1000001 H
#10220000
0%
09
#10230000
1%
19
b1000010 H
#10240000
0%
09
#10250000
1%
19
b1000011 H
#10260000
0%
09
#10270000
1%
19
b1000100 H
#10280000
0%
09
#10290000
1%
19
b1000101 H
#10300000
0%
09
#10310000
1%
19
b1000110 H
#10320000
0%
09
#10330000
1%
19
b1000111 H
#10340000
0%
09
#10350000
1%
19
b1001000 H
#10360000
0%
09
#10370000
1%
19
b1001001 H
#10380000
0%
09
#10390000
1%
19
b1001010 H
#10400000
0%
09
#10410000
1%
19
b1001011 H
#10420000
0%
09
#10430000
1%
19
b1001100 H
