uart_loopback_tb.vcd
$date
	Fri May 23 09:14:56 2025
$end
$version
	ModelSim Version 2020.1
$end
$timescale
	1ps
$end

$scope module uart_full_tb $end
$var parameter 32 ! CLK_RATE $end
$var parameter 32 " BAUD_RATE $end
$var parameter 32 # CLOCKS_PER_BIT $end
$var parameter 32 $ BIT_PERIOD $end
$var reg 1 % clk $end
$var reg 1 & rstn $end
$var reg 8 ' tx_data_in [7:0] $end
$var reg 1 ( tx_data_valid $end
$var wire 1 ) tx_busy $end
$var wire 1 * tx_state_bits [1] $end
$var wire 1 + tx_state_bits [0] $end
$var wire 1 , rx_data_out [7] $end
$var wire 1 - rx_data_out [6] $end
$var wire 1 . rx_data_out [5] $end
$var wire 1 / rx_data_out [4] $end
$var wire 1 0 rx_data_out [3] $end
$var wire 1 1 rx_data_out [2] $end
$var wire 1 2 rx_data_out [1] $end
$var wire 1 3 rx_data_out [0] $end
$var wire 1 4 rx_data_valid $end
$var wire 1 5 rx_is_valid $end
$var wire 1 6 rx_state_bits [1] $end
$var wire 1 7 rx_state_bits [0] $end
$var wire 1 8 serial_line $end

$scope task transmit_byte $end
$var reg 8 9 data [7:0] $end
$upscope $end

$scope task verify_reception $end
$var reg 8 : expected_data [7:0] $end
$upscope $end

$scope module tx_module $end
$var parameter 32 ; CLK_RATE $end
$var parameter 32 < BAUD_RATE $end
$var parameter 32 = BITS_PER_WORD $end
$var parameter 32 > CLOCKS_PER_BIT $end
$var parameter 2 ? STATE_IDLE $end
$var parameter 2 @ STATE_START $end
$var parameter 2 A STATE_DATA $end
$var parameter 2 B STATE_STOP $end
$var wire 1 C clk $end
$var wire 1 D rstn $end
$var wire 1 E data_in [7] $end
$var wire 1 F data_in [6] $end
$var wire 1 G data_in [5] $end
$var wire 1 H data_in [4] $end
$var wire 1 I data_in [3] $end
$var wire 1 J data_in [2] $end
$var wire 1 K data_in [1] $end
$var wire 1 L data_in [0] $end
$var wire 1 M data_valid $end
$var reg 1 N tx $end
$var reg 1 O busy $end
$var reg 2 P state_bits [1:0] $end
$var reg 2 Q state [1:0] $end
$var reg 9 R clk_count [8:0] $end
$var reg 3 S bit_index [2:0] $end
$var reg 8 T tx_data [7:0] $end
$upscope $end

$scope module rx_module $end
$var parameter 32 U CLK_RATE $end
$var parameter 32 V BAUD_RATE $end
$var parameter 32 W BITS_PER_WORD $end
$var parameter 32 X CLOCKS_PER_BIT $end
$var parameter 2 Y STATE_IDLE $end
$var parameter 2 Z STATE_START $end
$var parameter 2 [ STATE_DATA $end
$var parameter 2 \ STATE_STOP $end
$var wire 1 ] clk $end
$var wire 1 ^ rstn $end
$var wire 1 8 rx $end
$var reg 8 _ data_out [7:0] $end
$var reg 1 ` data_valid $end
$var reg 1 a is_valid $end
$var reg 2 b state_bits [1:0] $end
$var reg 2 c state [1:0] $end
$var reg 9 d clk_count [8:0] $end
$var reg 3 e bit_index [2:0] $end
$var reg 8 f rx_shift [7:0] $end
$upscope $end
$upscope $end
$enddefinitions $end
#0
$dumpvars
0%
0&
b0 '
0(
1N
0O
b0 P
b0 Q
b0 R
b0 S
b0 T
b0 _
0`
0a
b0 b
b0 c
b0 d
b0 e
b0 f
bx 9
bx :
b10111110101111000010000000 !
b11100001000000000 "
b110110010 #
b10000111101000 $
b10111110101111000010000000 ;
b11100001000000000 <
b1000 =
b110110010 >
b0 ?
b1 @
b10 A
b11 B
b10111110101111000010000000 U
b11100001000000000 V
b1000 W
b110110010 X
b0 Y
b1 Z
b10 [
b11 \
0)
0+
0*
03
02
01
00
0/
0.
0-
0,
04
05
07
06
18
0^
0]
0M
0L
0K
0J
0I
0H
0G
0F
0E
0D
0C
$end
#10000
1%
1C
1]
#20000
0%
0C
0]
#30000
1%
1C
1]
#40000
0%
0C
0]
#50000
1%
1C
1]
#60000
0%
0C
0]
#70000
1%
1C
1]
#80000
0%
0C
0]
#90000
1%
1C
1]
#100000
1&
0%
1D
1^
0C
0]
#110000
1%
1C
1]
#120000
0%
0C
0]
#130000
1%
1C
1]
#140000
0%
0C
0]
#150000
1%
1C
1]
#160000
0%
0C
0]
#170000
1%
1C
1]
#180000
0%
0C
0]
#190000
1%
1C
1]
#200000
b1010101 9
b1010101 :
0%
0C
0]
#210000
1%
1C
1]
b1010101 '
1(
1L
1J
1H
1F
1M
#220000
0%
0C
0]
#230000
1%
1C
1]
0(
0M
b1010101 T
b1 Q
1O
1)
#240000
0%
0C
0]
#250000
1%
1C
1]
b1 P
0N
b1 R
08
1+
#260000
0%
0C
0]
#270000
1%
1C
1]
b1 c
b11011001 d
b10 R
#280000
0%
0C
0]
#290000
1%
1C
1]
b1 b
b11011010 d
b11 R
17
#300000
0%
0C
0]
#310000
1%
1C
1]
b11011011 d
b100 R
#320000
0%
0C
0]
#330000
1%
1C
1]
b11011100 d
b101 R
#340000
0%
0C
0]
#350000
1%
1C
1]
b11011101 d
b110 R
#360000
0%
0C
0]
#370000
1%
1C
1]
b11011110 d
b111 R
#380000
0%
0C
0]
#390000
1%
1C
1]
b11011111 d
b1000 R
#400000
0%
0C
0]
#410000
1%
1C
1]
b11100000 d
b1001 R
#420000
0%
0C
0]
#430000
1%
1C
1]
b11100001 d
b1010 R
#440000
0%
0C
0]
#450000
1%
1C
1]
b11100010 d
b1011 R
#460000
0%
0C
0]
#470000
1%
1C
1]
b11100011 d
b1100 R
#480000
0%
0C
0]
#490000
1%
1C
1]
b11100100 d
b1101 R
#500000
0%
0C
0]
#510000
1%
1C
1]
b11100101 d
b1110 R
#520000
0%
0C
0]
#530000
1%
1C
1]
b11100110 d
b1111 R
#540000
0%
0C
0]
#550000
1%
1C
1]
b11100111 d
b10000 R
#560000
0%
0C
0]
#570000
1%
1C
1]
b11101000 d
b10001 R
#580000
0%
0C
0]
#590000
1%
1C
1]
b11101001 d
b10010 R
#600000
0%
0C
0]
#610000
1%
1C
1]
b11101010 d
b10011 R
#620000
0%
0C
0]
#630000
1%
1C
1]
b11101011 d
b10100 R
#640000
0%
0C
0]
#650000
1%
1C
1]
b11101100 d
b10101 R
#660000
0%
0C
0]
#670000
1%
1C
1]
b11101101 d
b10110 R
#680000
0%
0C
0]
#690000
1%
1C
1]
b11101110 d
b10111 R
#700000
0%
0C
0]
#710000
1%
1C
1]
b11101111 d
b11000 R
#720000
0%
0C
0]
#730000
1%
1C
1]
b11110000 d
b11001 R
#740000
0%
0C
0]
#750000
1%
1C
1]
b11110001 d
b11010 R
#760000
0%
0C
0]
#770000
1%
1C
1]
b11110010 d
b11011 R
#780000
0%
0C
0]
#790000
1%
1C
1]
b11110011 d
b11100 R
#800000
0%
0C
0]
#810000
1%
1C
1]
b11110100 d
b11101 R
#820000
0%
0C
0]
#830000
1%
1C
1]
b11110101 d
b11110 R
#840000
0%
0C
0]
#850000
1%
1C
1]
b11110110 d
b11111 R
#860000
0%
0C
0]
#870000
1%
1C
1]
b11110111 d
b100000 R
#880000
0%
0C
0]
#890000
1%
1C
1]
b11111000 d
b100001 R
#900000
0%
0C
0]
#910000
1%
1C
1]
b11111001 d
b100010 R
#920000
0%
0C
0]
#930000
1%
1C
1]
b11111010 d
b100011 R
#940000
0%
0C
0]
#950000
1%
1C
1]
b11111011 d
b100100 R
#960000
0%
0C
0]
#970000
1%
1C
1]
b11111100 d
b100101 R
#980000
0%
0C
0]
#990000
1%
1C
1]
b11111101 d
b100110 R
#1000000
0%
0C
0]
#1010000
1%
1C
1]
b11111110 d
b100111 R
#1020000
0%
0C
0]
#1030000
1%
1C
1]
b11111111 d
b101000 R
#1040000
0%
0C
0]
#1050000
1%
1C
1]
b100000000 d
b101001 R
#1060000
0%
0C
0]
#1070000
1%
1C
1]
b100000001 d
b101010 R
#1080000
0%
0C
0]
#1090000
1%
1C
1]
b100000010 d
b101011 R
#1100000
0%
0C
0]
#1110000
1%
1C
1]
b100000011 d
b101100 R
#1120000
0%
0C
0]
#1130000
1%
1C
1]
b100000100 d
b101101 R
#1140000
0%
0C
0]
#1150000
1%
1C
1]
b100000101 d
b101110 R
#1160000
0%
0C
0]
#1170000
1%
1C
1]
b100000110 d
b101111 R
#1180000
0%
0C
0]
#1190000
1%
1C
1]
b100000111 d
b110000 R
#1200000
0%
0C
0]
#1210000
1%
1C
1]
b100001000 d
b110001 R
#1220000
0%
0C
0]
#1230000
1%
1C
1]
b100001001 d
b110010 R
#1240000
0%
0C
0]
#1250000
1%
1C
1]
b100001010 d
b110011 R
#1260000
0%
0C
0]
#1270000
1%
1C
1]
b100001011 d
b110100 R
#1280000
0%
0C
0]
#1290000
1%
1C
1]
b100001100 d
b110101 R
#1300000
0%
0C
0]
#1310000
1%
1C
1]
b100001101 d
b110110 R
#1320000
0%
0C
0]
#1330000
1%
1C
1]
b100001110 d
b110111 R
#1340000
0%
0C
0]
#1350000
1%
1C
1]
b100001111 d
b111000 R
#1360000
0%
0C
0]
#1370000
1%
1C
1]
b100010000 d
b111001 R
#1380000
0%
0C
0]
#1390000
1%
1C
1]
b100010001 d
b111010 R
#1400000
0%
0C
0]
#1410000
1%
1C
1]
b100010010 d
b111011 R
#1420000
0%
0C
0]
#1430000
1%
1C
1]
b100010011 d
b111100 R
#1440000
0%
0C
0]
#1450000
1%
1C
1]
b100010100 d
b111101 R
#1460000
0%
0C
0]
#1470000
1%
1C
1]
b100010101 d
b111110 R
#1480000
0%
0C
0]
#1490000
1%
1C
1]
b100010110 d
b111111 R
#1500000
0%
0C
0]
#1510000
1%
1C
1]
b100010111 d
b1000000 R
#1520000
0%
0C
0]
#1530000
1%
1C
1]
b100011000 d
b1000001 R
#1540000
0%
0C
0]
#1550000
1%
1C
1]
b100011001 d
b1000010 R
#1560000
0%
0C
0]
#1570000
1%
1C
1]
b100011010 d
b1000011 R
#1580000
0%
0C
0]
#1590000
1%
1C
1]
b100011011 d
b1000100 R
#1600000
0%
0C
0]
#1610000
1%
1C
1]
b100011100 d
b1000101 R
#1620000
0%
0C
0]
#1630000
1%
1C
1]
b100011101 d
b1000110 R
#1640000
0%
0C
0]
#1650000
1%
1C
1]
b100011110 d
b1000111 R
#1660000
0%
0C
0]
#1670000
1%
1C
1]
b100011111 d
b1001000 R
#1680000
0%
0C
0]
#1690000
1%
1C
1]
b100100000 d
b1001001 R
#1700000
0%
0C
0]
#1710000
1%
1C
1]
b100100001 d
b1001010 R
#1720000
0%
0C
0]
#1730000
1%
1C
1]
b100100010 d
b1001011 R
#1740000
0%
0C
0]
#1750000
1%
1C
1]
b100100011 d
b1001100 R
#1760000
0%
0C
0]
#1770000
1%
1C
1]
b100100100 d
b1001101 R
#1780000
0%
0C
0]
#1790000
1%
1C
1]
b100100101 d
b1001110 R
#1800000
0%
0C
0]
#1810000
1%
1C
1]
b100100110 d
b1001111 R
#1820000
0%
0C
0]
#1830000
1%
1C
1]
b100100111 d
b1010000 R
#1840000
0%
0C
0]
#1850000
1%
1C
1]
b100101000 d
b1010001 R
#1860000
0%
0C
0]
#1870000
1%
1C
1]
b100101001 d
b1010010 R
#1880000
0%
0C
0]
#1890000
1%
1C
1]
b100101010 d
b1010011 R
#1900000
0%
0C
0]
#1910000
1%
1C
1]
b100101011 d
b1010100 R
#1920000
0%
0C
0]
#1930000
1%
1C
1]
b100101100 d
b1010101 R
#1940000
0%
0C
0]
#1950000
1%
1C
1]
b100101101 d
b1010110 R
#1960000
0%
0C
0]
#1970000
1%
1C
1]
b100101110 d
b1010111 R
#1980000
0%
0C
0]
#1990000
1%
1C
1]
b100101111 d
b1011000 R
#2000000
0%
0C
0]
#2010000
1%
1C
1]
b100110000 d
b1011001 R
#2020000
0%
0C
0]
#2030000
1%
1C
1]
b100110001 d
b1011010 R
#2040000
0%
0C
0]
#2050000
1%
1C
1]
b100110010 d
b1011011 R
#2060000
0%
0C
0]
#2070000
1%
1C
1]
b100110011 d
b1011100 R
#2080000
0%
0C
0]
#2090000
1%
1C
1]
b100110100 d
b1011101 R
#2100000
0%
0C
0]
#2110000
1%
1C
1]
b100110101 d
b1011110 R
#2120000
0%
0C
0]
#2130000
1%
1C
1]
b100110110 d
b1011111 R
#2140000
0%
0C
0]
#2150000
1%
1C
1]
b100110111 d
b1100000 R
#2160000
0%
0C
0]
#2170000
1%
1C
1]
b100111000 d
b1100001 R
#2180000
0%
0C
0]
#2190000
1%
1C
1]
b100111001 d
b1100010 R
#2200000
0%
0C
0]
#2210000
1%
1C
1]
b100111010 d
b1100011 R
#2220000
0%
0C
0]
#2230000
1%
1C
1]
b100111011 d
b1100100 R
#2240000
0%
0C
0]
#2250000
1%
1C
1]
b100111100 d
b1100101 R
#2260000
0%
0C
0]
#2270000
1%
1C
1]
b100111101 d
b1100110 R
#2280000
0%
0C
0]
#2290000
1%
1C
1]
b100111110 d
b1100111 R
#2300000
0%
0C
0]
#2310000
1%
1C
1]
b100111111 d
b1101000 R
#2320000
0%
0C
0]
#2330000
1%
1C
1]
b101000000 d
b1101001 R
#2340000
0%
0C
0]
#2350000
1%
1C
1]
b101000001 d
b1101010 R
#2360000
0%
0C
0]
#2370000
1%
1C
1]
b101000010 d
b1101011 R
#2380000
0%
0C
0]
#2390000
1%
1C
1]
b101000011 d
b1101100 R
#2400000
0%
0C
0]
#2410000
1%
1C
1]
b101000100 d
b1101101 R
#2420000
0%
0C
0]
#2430000
1%
1C
1]
b101000101 d
b1101110 R
#2440000
0%
0C
0]
#2450000
1%
1C
1]
b101000110 d
b1101111 R
#2460000
0%
0C
0]
#2470000
1%
1C
1]
b101000111 d
b1110000 R
#2480000
0%
0C
0]
#2490000
1%
1C
1]
b101001000 d
b1110001 R
#2500000
0%
0C
0]
#2510000
1%
1C
1]
b101001001 d
b1110010 R
#2520000
0%
0C
0]
#2530000
1%
1C
1]
b101001010 d
b1110011 R
#2540000
0%
0C
0]
#2550000
1%
1C
1]
b101001011 d
b1110100 R
#2560000
0%
0C
0]
#2570000
1%
1C
1]
b101001100 d
b1110101 R
#2580000
0%
0C
0]
#2590000
1%
1C
1]
b101001101 d
b1110110 R
#2600000
0%
0C
0]
#2610000
1%
1C
1]
b101001110 d
b1110111 R
#2620000
0%
0C
0]
#2630000
1%
1C
1]
b101001111 d
b1111000 R
#2640000
0%
0C
0]
#2650000
1%
1C
1]
b101010000 d
b1111001 R
#2660000
0%
0C
0]
#2670000
1%
1C
1]
b101010001 d
b1111010 R
#2680000
0%
0C
0]
#2690000
1%
1C
1]
b101010010 d
b1111011 R
#2700000
0%
0C
0]
#2710000
1%
1C
1]
b101010011 d
b1111100 R
#2720000
0%
0C
0]
#2730000
1%
1C
1]
b101010100 d
b1111101 R
#2740000
0%
0C
0]
#2750000
1%
1C
1]
b101010101 d
b1111110 R
#2760000
0%
0C
0]
#2770000
1%
1C
1]
b101010110 d
b1111111 R
#2780000
0%
0C
0]
#2790000
1%
1C
1]
b101010111 d
b10000000 R
#2800000
0%
0C
0]
#2810000
1%
1C
1]
b101011000 d
b10000001 R
#2820000
0%
0C
0]
#2830000
1%
1C
1]
b101011001 d
b10000010 R
#2840000
0%
0C
0]
#2850000
1%
1C
1]
b101011010 d
b10000011 R
#2860000
0%
0C
0]
#2870000
1%
1C
1]
b101011011 d
b10000100 R
#2880000
0%
0C
0]
#2890000
1%
1C
1]
b101011100 d
b10000101 R
#2900000
0%
0C
0]
#2910000
1%
1C
1]
b101011101 d
b10000110 R
#2920000
0%
0C
0]
#2930000
1%
1C
1]
b101011110 d
b10000111 R
#2940000
0%
0C
0]
#2950000
1%
1C
1]
b101011111 d
b10001000 R
#2960000
0%
0C
0]
#2970000
1%
1C
1]
b101100000 d
b10001001 R
#2980000
0%
0C
0]
#2990000
1%
1C
1]
b101100001 d
b10001010 R
#3000000
0%
0C
0]
#3010000
1%
1C
1]
b101100010 d
b10001011 R
#3020000
0%
0C
0]
#3030000
1%
1C
1]
b101100011 d
b10001100 R
#3040000
0%
0C
0]
#3050000
1%
1C
1]
b101100100 d
b10001101 R
#3060000
0%
0C
0]
#3070000
1%
1C
1]
b101100101 d
b10001110 R
#3080000
0%
0C
0]
#3090000
1%
1C
1]
b101100110 d
b10001111 R
#3100000
0%
0C
0]
#3110000
1%
1C
1]
b101100111 d
b10010000 R
#3120000
0%
0C
0]
#3130000
1%
1C
1]
b101101000 d
b10010001 R
#3140000
0%
0C
0]
#3150000
1%
1C
1]
b101101001 d
b10010010 R
#3160000
0%
0C
0]
#3170000
1%
1C
1]
b101101010 d
b10010011 R
#3180000
0%
0C
0]
#3190000
1%
1C
1]
b101101011 d
b10010100 R
#3200000
0%
0C
0]
#3210000
1%
1C
1]
b101101100 d
b10010101 R
#3220000
0%
0C
0]
#3230000
1%
1C
1]
b101101101 d
b10010110 R
#3240000
0%
0C
0]
#3250000
1%
1C
1]
b101101110 d
b10010111 R
#3260000
0%
0C
0]
#3270000
1%
1C
1]
b101101111 d
b10011000 R
#3280000
0%
0C
0]
#3290000
1%
1C
1]
b101110000 d
b10011001 R
#3300000
0%
0C
0]
#3310000
1%
1C
1]
b101110001 d
b10011010 R
#3320000
0%
0C
0]
#3330000
1%
1C
1]
b101110010 d
b10011011 R
#3340000
0%
0C
0]
#3350000
1%
1C
1]
b101110011 d
b10011100 R
#3360000
0%
0C
0]
#3370000
1%
1C
1]
b101110100 d
b10011101 R
#3380000
0%
0C
0]
#3390000
1%
1C
1]
b101110101 d
b10011110 R
#3400000
0%
0C
0]
#3410000
1%
1C
1]
b101110110 d
b10011111 R
#3420000
0%
0C
0]
#3430000
1%
1C
1]
b101110111 d
b10100000 R
#3440000
0%
0C
0]
#3450000
1%
1C
1]
b101111000 d
b10100001 R
#3460000
0%
0C
0]
#3470000
1%
1C
1]
b101111001 d
b10100010 R
#3480000
0%
0C
0]
#3490000
1%
1C
1]
b101111010 d
b10100011 R
#3500000
0%
0C
0]
#3510000
1%
1C
1]
b101111011 d
b10100100 R
#3520000
0%
0C
0]
#3530000
1%
1C
1]
b101111100 d
b10100101 R
#3540000
0%
0C
0]
#3550000
1%
1C
1]
b101111101 d
b10100110 R
#3560000
0%
0C
0]
#3570000
1%
1C
1]
b101111110 d
b10100111 R
#3580000
0%
0C
0]
#3590000
1%
1C
1]
b101111111 d
b10101000 R
#3600000
0%
0C
0]
#3610000
1%
1C
1]
b110000000 d
b10101001 R
#3620000
0%
0C
0]
#3630000
1%
1C
1]
b110000001 d
b10101010 R
#3640000
0%
0C
0]
#3650000
1%
1C
1]
b110000010 d
b10101011 R
#3660000
0%
0C
0]
#3670000
1%
1C
1]
b110000011 d
b10101100 R
#3680000
0%
0C
0]
#3690000
1%
1C
1]
b110000100 d
b10101101 R
#3700000
0%
0C
0]
#3710000
1%
1C
1]
b110000101 d
b10101110 R
#3720000
0%
0C
0]
#3730000
1%
1C
1]
b110000110 d
b10101111 R
#3740000
0%
0C
0]
#3750000
1%
1C
1]
b110000111 d
b10110000 R
#3760000
0%
0C
0]
#3770000
1%
1C
1]
b110001000 d
b10110001 R
#3780000
0%
0C
0]
#3790000
1%
1C
1]
b110001001 d
b10110010 R
#3800000
0%
0C
0]
#3810000
1%
1C
1]
b110001010 d
b10110011 R
#3820000
0%
0C
0]
#3830000
1%
1C
1]
b110001011 d
b10110100 R
#3840000
0%
0C
0]
#3850000
1%
1C
1]
b110001100 d
b10110101 R
#3860000
0%
0C
0]
#3870000
1%
1C
1]
b110001101 d
b10110110 R
#3880000
0%
0C
0]
#3890000
1%
1C
1]
b110001110 d
b10110111 R
#3900000
0%
0C
0]
#3910000
1%
1C
1]
b110001111 d
b10111000 R
#3920000
0%
0C
0]
#3930000
1%
1C
1]
b110010000 d
b10111001 R
#3940000
0%
0C
0]
#3950000
1%
1C
1]
b110010001 d
b10111010 R
#3960000
0%
0C
0]
#3970000
1%
1C
1]
b110010010 d
b10111011 R
#3980000
0%
0C
0]
#3990000
1%
1C
1]
b110010011 d
b10111100 R
#4000000
0%
0C
0]
#4010000
1%
1C
1]
b110010100 d
b10111101 R
#4020000
0%
0C
0]
#4030000
1%
1C
1]
b110010101 d
b10111110 R
#4040000
0%
0C
0]
#4050000
1%
1C
1]
b110010110 d
b10111111 R
#4060000
0%
0C
0]
#4070000
1%
1C
1]
b110010111 d
b11000000 R
#4080000
0%
0C
0]
#4090000
1%
1C
1]
b110011000 d
b11000001 R
#4100000
0%
0C
0]
#4110000
1%
1C
1]
b110011001 d
b11000010 R
#4120000
0%
0C
0]
#4130000
1%
1C
1]
b110011010 d
b11000011 R
#4140000
0%
0C
0]
#4150000
1%
1C
1]
b110011011 d
b11000100 R
#4160000
0%
0C
0]
#4170000
1%
1C
1]
b110011100 d
b11000101 R
#4180000
0%
0C
0]
#4190000
1%
1C
1]
b110011101 d
b11000110 R
#4200000
0%
0C
0]
#4210000
1%
1C
1]
b110011110 d
b11000111 R
#4220000
0%
0C
0]
#4230000
1%
1C
1]
b110011111 d
b11001000 R
#4240000
0%
0C
0]
#4250000
1%
1C
1]
b110100000 d
b11001001 R
#4260000
0%
0C
0]
#4270000
1%
1C
1]
b110100001 d
b11001010 R
#4280000
0%
0C
0]
#4290000
1%
1C
1]
b110100010 d
b11001011 R
#4300000
0%
0C
0]
#4310000
1%
1C
1]
b110100011 d
b11001100 R
#4320000
0%
0C
0]
#4330000
1%
1C
1]
b110100100 d
b11001101 R
#4340000
0%
0C
0]
#4350000
1%
1C
1]
b110100101 d
b11001110 R
#4360000
0%
0C
0]
#4370000
1%
1C
1]
b110100110 d
b11001111 R
#4380000
0%
0C
0]
#4390000
1%
1C
1]
b110100111 d
b11010000 R
#4400000
0%
0C
0]
#4410000
1%
1C
1]
b110101000 d
b11010001 R
#4420000
0%
0C
0]
#4430000
1%
1C
1]
b110101001 d
b11010010 R
#4440000
0%
0C
0]
#4450000
1%
1C
1]
b110101010 d
b11010011 R
#4460000
0%
0C
0]
#4470000
1%
1C
1]
b110101011 d
b11010100 R
#4480000
0%
0C
0]
#4490000
1%
1C
1]
b110101100 d
b11010101 R
#4500000
0%
0C
0]
#4510000
1%
1C
1]
b110101101 d
b11010110 R
#4520000
0%
0C
0]
#4530000
1%
1C
1]
b110101110 d
b11010111 R
#4540000
0%
0C
0]
#4550000
1%
1C
1]
b110101111 d
b11011000 R
#4560000
0%
0C
0]
#4570000
1%
1C
1]
b110110000 d
b11011001 R
#4580000
0%
0C
0]
#4590000
1%
1C
1]
b110110001 d
b11011010 R
#4600000
0%
0C
0]
#4610000
1%
1C
1]
b0 d
b10 c
b11011011 R
#4620000
0%
0C
0]
#4630000
1%
1C
1]
1a
b10 b
b1 d
b11011100 R
15
07
16
#4640000
0%
0C
0]
#4650000
1%
1C
1]
b10 d
b11011101 R
#4660000
0%
0C
0]
#4670000
1%
1C
1]
b11 d
b11011110 R
#4680000
0%
0C
0]
#4690000
1%
1C
1]
b100 d
b11011111 R
#4700000
0%
0C
0]
#4710000
1%
1C
1]
b101 d
b11100000 R
#4720000
0%
0C
0]
#4730000
1%
1C
1]
b110 d
b11100001 R
#4740000
0%
0C
0]
#4750000
1%
1C
1]
b111 d
b11100010 R
#4760000
0%
0C
0]
#4770000
1%
1C
1]
b1000 d
b11100011 R
#4780000
0%
0C
0]
#4790000
1%
1C
1]
b1001 d
b11100100 R
#4800000
0%
0C
0]
#4810000
1%
1C
1]
b1010 d
b11100101 R
#4820000
0%
0C
0]
#4830000
1%
1C
1]
b1011 d
b11100110 R
#4840000
0%
0C
0]
#4850000
1%
1C
1]
b1100 d
b11100111 R
#4860000
0%
0C
0]
#4870000
1%
1C
1]
b1101 d
b11101000 R
#4880000
0%
0C
0]
#4890000
1%
1C
1]
b1110 d
b11101001 R
#4900000
0%
0C
0]
#4910000
1%
1C
1]
b1111 d
b11101010 R
#4920000
0%
0C
0]
#4930000
1%
1C
1]
b10000 d
b11101011 R
#4940000
0%
0C
0]
#4950000
1%
1C
1]
b10001 d
b11101100 R
#4960000
0%
0C
0]
#4970000
1%
1C
1]
b10010 d
b11101101 R
#4980000
0%
0C
0]
#4990000
1%
1C
1]
b10011 d
b11101110 R
#5000000
0%
0C
0]
#5010000
1%
1C
1]
b10100 d
b11101111 R
#5020000
0%
0C
0]
#5030000
1%
1C
1]
b10101 d
b11110000 R
#5040000
0%
0C
0]
#5050000
1%
1C
1]
b10110 d
b11110001 R
#5060000
0%
0C
0]
#5070000
1%
1C
1]
b10111 d
b11110010 R
#5080000
0%
0C
0]
#5090000
1%
1C
1]
b11000 d
b11110011 R
#5100000
0%
0C
0]
#5110000
1%
1C
1]
b11001 d
b11110100 R
#5120000
0%
0C
0]
#5130000
1%
1C
1]
b11010 d
b11110101 R
#5140000
0%
0C
0]
#5150000
1%
1C
1]
b11011 d
b11110110 R
#5160000
0%
0C
0]
#5170000
1%
1C
1]
b11100 d
b11110111 R
#5180000
0%
0C
0]
#5190000
1%
1C
1]
b11101 d
b11111000 R
#5200000
0%
0C
0]
#5210000
1%
1C
1]
b11110 d
b11111001 R
#5220000
0%
0C
0]
#5230000
1%
1C
1]
b11111 d
b11111010 R
#5240000
0%
0C
0]
#5250000
1%
1C
1]
b100000 d
b11111011 R
#5260000
0%
0C
0]
#5270000
1%
1C
1]
b100001 d
b11111100 R
#5280000
0%
0C
0]
#5290000
1%
1C
1]
b100010 d
b11111101 R
#5300000
0%
0C
0]
#5310000
1%
1C
1]
b100011 d
b11111110 R
#5320000
0%
0C
0]
#5330000
1%
1C
1]
b100100 d
b11111111 R
#5340000
0%
0C
0]
#5350000
1%
1C
1]
b100101 d
b100000000 R
#5360000
0%
0C
0]
#5370000
1%
1C
1]
b100110 d
b100000001 R
#5380000
0%
0C
0]
#5390000
1%
1C
1]
b100111 d
b100000010 R
#5400000
0%
0C
0]
#5410000
1%
1C
1]
b101000 d
b100000011 R
#5420000
0%
0C
0]
#5430000
1%
1C
1]
b101001 d
b100000100 R
#5440000
0%
0C
0]
#5450000
1%
1C
1]
b101010 d
b100000101 R
#5460000
0%
0C
0]
#5470000
1%
1C
1]
b101011 d
b100000110 R
#5480000
0%
0C
0]
#5490000
1%
1C
1]
b101100 d
b100000111 R
#5500000
0%
0C
0]
#5510000
1%
1C
1]
b101101 d
b100001000 R
#5520000
0%
0C
0]
#5530000
1%
1C
1]
b101110 d
b100001001 R
#5540000
0%
0C
0]
#5550000
1%
1C
1]
b101111 d
b100001010 R
#5560000
0%
0C
0]
#5570000
1%
1C
1]
b110000 d
b100001011 R
#5580000
0%
0C
0]
#5590000
1%
1C
1]
b110001 d
b100001100 R
#5600000
0%
0C
0]
#5610000
1%
1C
1]
b110010 d
b100001101 R
#5620000
0%
0C
0]
#5630000
1%
1C
1]
b110011 d
b100001110 R
#5640000
0%
0C
0]
#5650000
1%
1C
1]
b110100 d
b100001111 R
#5660000
0%
0C
0]
#5670000
1%
1C
1]
b110101 d
b100010000 R
#5680000
0%
0C
0]
#5690000
1%
1C
1]
b110110 d
b100010001 R
#5700000
0%
0C
0]
#5710000
1%
1C
1]
b110111 d
b100010010 R
#5720000
0%
0C
0]
#5730000
1%
1C
1]
b111000 d
b100010011 R
#5740000
0%
0C
0]
#5750000
1%
1C
1]
b111001 d
b100010100 R
#5760000
0%
0C
0]
#5770000
1%
1C
1]
b111010 d
b100010101 R
#5780000
0%
0C
0]
#5790000
1%
1C
1]
b111011 d
b100010110 R
#5800000
0%
0C
0]
#5810000
1%
1C
1]
b111100 d
b100010111 R
#5820000
0%
0C
0]
#5830000
1%
1C
1]
b111101 d
b100011000 R
#5840000
0%
0C
0]
#5850000
1%
1C
1]
b111110 d
b100011001 R
#5860000
0%
0C
0]
#5870000
1%
1C
1]
b111111 d
b100011010 R
#5880000
0%
0C
0]
#5890000
1%
1C
1]
b1000000 d
b100011011 R
#5900000
0%
0C
0]
#5910000
1%
1C
1]
b1000001 d
b100011100 R
#5920000
0%
0C
0]
#5930000
1%
1C
1]
b1000010 d
b100011101 R
#5940000
0%
0C
0]
#5950000
1%
1C
1]
b1000011 d
b100011110 R
#5960000
0%
0C
0]
#5970000
1%
1C
1]
b1000100 d
b100011111 R
#5980000
0%
0C
0]
#5990000
1%
1C
1]
b1000101 d
b100100000 R
#6000000
0%
0C
0]
#6010000
1%
1C
1]
b1000110 d
b100100001 R
#6020000
0%
0C
0]
#6030000
1%
1C
1]
b1000111 d
b100100010 R
#6040000
0%
0C
0]
#6050000
1%
1C
1]
b1001000 d
b100100011 R
#6060000
0%
0C
0]
#6070000
1%
1C
1]
b1001001 d
b100100100 R
#6080000
0%
0C
0]
#6090000
1%
1C
1]
b1001010 d
b100100101 R
#6100000
0%
0C
0]
#6110000
1%
1C
1]
b1001011 d
b100100110 R
#6120000
0%
0C
0]
#6130000
1%
1C
1]
b1001100 d
b100100111 R
#6140000
0%
0C
0]
#6150000
1%
1C
1]
b1001101 d
b100101000 R
#6160000
0%
0C
0]
#6170000
1%
1C
1]
b1001110 d
b100101001 R
#6180000
0%
0C
0]
#6190000
1%
1C
1]
b1001111 d
b100101010 R
#6200000
0%
0C
0]
#6210000
1%
1C
1]
b1010000 d
b100101011 R
#6220000
0%
0C
0]
#6230000
1%
1C
1]
b1010001 d
b100101100 R
#6240000
0%
0C
0]
#6250000
1%
1C
1]
b1010010 d
b100101101 R
#6260000
0%
0C
0]
#6270000
1%
1C
1]
b1010011 d
b100101110 R
#6280000
0%
0C
0]
#6290000
1%
1C
1]
b1010100 d
b100101111 R
#6300000
0%
0C
0]
#6310000
1%
1C
1]
b1010101 d
b100110000 R
#6320000
0%
0C
0]
#6330000
1%
1C
1]
b1010110 d
b100110001 R
#6340000
0%
0C
0]
#6350000
1%
1C
1]
b1010111 d
b100110010 R
#6360000
0%
0C
0]
#6370000
1%
1C
1]
b1011000 d
b100110011 R
#6380000
0%
0C
0]
#6390000
1%
1C
1]
b1011001 d
b100110100 R
#6400000
0%
0C
0]
